blue_scarf_rebellion = {
	potential = {
		has_country_modifier = xia_xianxia
		NOT = { has_country_flag = blue_scarves_happened }
	}
	
	can_start = {
		has_country_modifier = xia_xianxia
		is_in_war = {
			attacker_leader = ROOT
			duration = 180
		}
	}
	
	can_stop = {
	}
	
	progress = {
		modifier = {
			factor = 2.5
			has_country_modifier = xia_xianxia
			development_in_provinces = {
				value = 250
				NOT = {
					OR = {
						superregion = yanshen_superregion
						region = xianjie_region
					}
					religion = righteous_path
				}
			}
		}
		modifier = {
			factor = 5
			has_country_modifier = xia_xianxia
			development_in_provinces = {
				value = 500
				NOT = {
					OR = {
						superregion = yanshen_superregion
						region = xianjie_region
					}
					religion = righteous_path
				}
			}
		}
		modifier = {
			factor = 2
			has_country_modifier = xia_xianxia
			development_in_provinces = {
				value = 750
				NOT = {
					OR = {
						superregion = yanshen_superregion
						region = xianjie_region
					}
				}
			}
		}
		modifier = {
			factor = 2
			has_country_modifier = xia_xianxia
			development_in_provinces = {
				value = 1000
				NOT = {
					OR = {
						superregion = yanshen_superregion
						region = xianjie_region
					}
				}
			}
		}
		modifier = {
			factor = 5
			has_country_modifier = xia_righteous_liberators_3
		}
	}
	
	can_end = {
		custom_trigger_tooltip = {
			tooltip = defeat_blue_scarves_tooltip
			NOT = {
				war_with = Y05
			}
			had_country_flag = {
				flag = bluescarves_debug_flag
				days = 90
			}
		}
	}
	
	modifier = {
		land_morale = -0.2
		reinforce_speed = -0.2
		manpower_recovery_speed	= -0.2
		global_manpower_modifier = -0.2
		garrison_size = -0.33
		tolerance_own = -3
		global_unrest = 3
	}
	
	on_start = blue_scarves.1
	on_end = blue_scarves.3
	
	on_monthly = {
		events = {
		}
		random_events = { 
			800 = 0
			150 = blue_scarves.8	#Monks speak out in support of the Blue Scarves
			100 = blue_scarves.9	#Soldiers defect to the Blue Scarves
			25 = blue_scarves.10	#Hero defects to the Blue Scarves
			125 = blue_scarves.11	#Militia defects to the Blue Scarves
		}
	}
}