
magnate_uprising = {
	ended_by_country_breaking_to_rebels = no
	potential = {
		is_year = 1600 # Give them 50 years to see it coming
		government = monarchy
		has_estate_privilege = estate_burghers_magnate_council
		tag = A13
		NOT = { has_country_flag = ended_magnate_uprising }
		is_subject = no
	}
	
	can_start = {
		has_any_disaster = no
		is_year = 1650
		# 70 influence or below 40 loyalty
		OR = {
			estate_influence = {
				estate = estate_burghers
				influence = 70
			}
			NOT = {
				estate_loyalty = {
					estate = estate_burghers
					loyalty = 40
				}
			}
		}
		has_estate_privilege = estate_burghers_magnate_council
	}
	
	can_stop = {
		OR = {
			has_any_disaster = yes
			if = {
				limit = { NOT = { has_disaster = magnate_uprising } }
				OR = {
					has_any_disaster = yes
					AND = {
						estate_loyalty = {
							estate = estate_burghers
							loyalty = 60
						}
						NOT = {
							estate_influence = {
								estate = estate_burghers
								influence = 50
							}
						}
					}
				}
			}
		}
	}
	
	progress = {
		modifier = {
			factor = 1
			has_regency = yes
		}
		modifier = {
			factor = 1
			NOT = {
				estate_loyalty = {
					estate = estate_burghers
					loyalty = 45
				}
			}
		}
		modifier = {
			factor = 1
			estate_influence = {
				estate = estate_burghers
				influence = 60
			}
		}
		modifier = {
			factor = 5
			has_estate_led_regency = {
				estate = estate_burghers
				duration = 1
			}
		}
		modifier = {
			factor = 1
			NOT = { stability = 1 }
		}
		modifier = {
			factor = 2
			NOT = { has_estate_privilege = estate_burghers_magnate_council } # If you try and screw them
		}
	}
	
	can_end = {
		if = {
			limit = { NOT = { has_disaster = magnate_uprising } }
			OR = {
				has_any_disaster = yes
				AND = {
					estate_loyalty = {
						estate = estate_burghers
						loyalty = 60
					}
					NOT = {
						estate_influence = {
							estate = estate_burghers
							influence = 50
						}
					}
				}
			}
		}
		else_if = {
			limit = { has_country_flag = chose_crown }
			NOT = { has_spawned_rebels = particularist_rebels }
			stability = 1
			NOT = {
				any_owned_province = {
					has_province_modifier = magnate_stronghold
				}
			}
		}
		else_if = {
			limit = { has_country_flag = chose_magnates }
			NOT = { has_spawned_rebels = pretender_rebels }
			NOT = { has_spawned_rebels = noble_rebels }
			stability = 1
			NOT = {
				any_owned_province = {
					has_province_modifier = crown_stronghold
				}
			}
		}
		else = {
			custom_trigger_tooltip = {
				tooltip = mangates_uprising_choose_side_tt
				always = no
			}
		}
	}
	

	modifier = {
		global_unrest = 5
		stability_cost_modifier = 0.25
		global_tax_modifier = -0.1
	}	
	
	
	on_start = magnate_uprising.1
	on_end = magnate_uprising.2
	
	on_monthly = {
		events = {
	
		}
		random_events = { 
			1000 = 0
			200 = magnate_uprising.3
			200 = magnate_uprising.4
			# 100 = magnate_uprising.5 triggered by time
			50 = magnate_uprising.6
			25 = magnate_uprising.7
			50 = magnate_uprising.8
			100 = magnate_uprising.9
			35 = magnate_uprising.10
			25 = magnate_uprising.11
		}
	}
}