######################################################################
# Sun elves loyalists rebels. Wants the clergy to be loyal to the elves only.
######################################################################
sun_elf_loyalists_rebels = {

	color = { 230 175 175 }

	area = nation 					# Sticks to provinces of their nation
	government = any
	religion = bulwari_sun_cult
	defection = none				# Will not defect
	independence = none				# Does not strive for independence
	unit_transfer = no
	gfx_type = culture_province
	will_relocate = yes	
	
	resilient = yes
	reinforcing = yes
	general = no
	smart = yes
	
	artillery = 0.1
	infantry = 0.7
	cavalry = 0.2
	
	morale = 1

	# Possible handle actions
	handle_action_negotiate = yes
	handle_action_stability = no
	handle_action_build_core = no
	handle_action_send_missionary = no		
	
	# The rebel type with the highest modifier for this province gets picked
	spawn_chance = {
		factor = 0
	}
 
 	# This is checked for EACH province in the Area of Operations
	movement_evaluation = {
		factor = 1
		modifier = {
			factor = 0.5
			units_in_province = 1
		}
		modifier = {
			factor = 0.001
			controlled_by = REB
		}
		modifier = {
			factor = 10
			is_capital = yes
		}
		modifier = {
			factor = 1.5
			unrest = 2
		}
		modifier = {
			factor = 1.5
			unrest = 4
		}
		modifier = {
			factor = 1.5
			unrest = 6
		}
	}
 
 	# Province Scope
 	siege_won_trigger = {
		# NOT = {
			# AND = {
				# owned_by = PAP
				# is_capital = yes
			# }
		# }
 	}
	siege_won_effect = {

	}
	
	# Country scope
	can_negotiate_trigger = {
		OR = {
			religion_group = bulwari
			dominant_religion = bulwari_sun_cult
		}
		NOT = { has_disaster = nsc_dinam_elutur }
	}
	
	# Country scope
	can_enforce_trigger = {
		always = yes
	}
	
	# Localisation for their demands
	demands_description = "sun_elf_loyalists_demand"
	
	# Country Scope	
	demands_enforced_effect = {
		hidden_effect = {
			add_country_modifier = {
				name = just_lost_to_rebels
				duration = 10
				hidden = yes
			}
		}
		set_estate_privilege = estate_church_indepedent_clergy
		add_estate_influence_modifier = {
			estate = estate_church
			desc = EST_VAL_RELIGIOUS_ZEALOTS_TRIUMPH
			duration = 3650
			influence = 15
		}
	}
}
