#Lowercastes

estate_lowercastes_organization_caste = {
	icon = privilege_promote_maratha_nobility
	max_absolutism = 0
	loyalty = 0.05
	land_share = 5
	influence = 0.1
	can_select = {
		always = no
	}
	can_revoke = {
		always = no
	}
	on_granted = {
		custom_tooltip = caste_races_lowercastes_tt
	}
	on_revoked = {
		custom_tooltip = caste_races_lowercastes_tt
	}
	penalties = {
	}
	benefits = {
	}

	conditional_modifier = {
		trigger = {
			has_country_flag = human_in_lowercastes #Are humans alone in caste?
			NOT = {
				has_country_flag = harimari_in_lowercastes
				# add any races here
			}
		}
		modifier = {
			production_efficiency = 0.10 #Full modifier, humans are alone in the caste
		}
	}
	conditional_modifier = {
		trigger = {
			has_country_flag = harimari_in_lowercastes #Are harimari alone in caste?
			NOT = {
				has_country_flag = human_in_lowercastes
				# add any races here
			}
		}
		modifier = {
			development_cost = -0.05 #Full modifier, harimari are alone in the caste
		}
	}
	conditional_modifier = {
		trigger = {
			has_country_flag = human_in_lowercastes #Do humans share the caste?
			has_country_flag = harimari_in_lowercastes
		}
		modifier = {
			production_efficiency = 0.05 #Half modifier, humans share the caste
			development_cost = -0.025 #Half modifier, harimari share in the caste
		}
	}

	ai_will_do = {
		factor = 0
	}
}

estate_lowercastes_land_rights = {
	icon = privilege_grant_autonomy
	land_share = 5
	max_absolutism = -5
	loyalty = 0.05
	influence = 0.05
	can_select = {
	}
	on_granted = {
	}
	penalties = {
	}
	benefits = {
		governing_capacity = 100
	}
	ai_will_do = {
		factor = 5
		modifier = {
			factor = 1.4
			num_of_territories = 5
		}
		modifier = {
			factor = 1.5
			num_of_territories = 10
		}
		modifier = {
			factor = 1.5
			num_of_territories = 15
		}
		modifier = {
			factor = 0
			OR = {
				NOT = { crown_land_share = 25 }
				estate_influence = {
					estate = estate_lowercastes
					influence = 75
				}
			}
			NOT = { has_estate_privilege = estate_lowercastes_land_rights }
		}
		modifier = {
			factor = 0
			NOT = { num_of_territories = 1 }
		}
		modifier = {
			factor = 0.8
			OR = {
				NOT = { crown_land_share = 40 }
				AND = {
					is_absolutism_active = yes
					NOT = { crown_land_share = 60 }
				}
			}
			NOT = { has_estate_privilege = estate_lowercastes_land_rights }
		}
		modifier = {
			factor = 0.8
			OR = {
				NOT = { crown_land_share = 30 }
				AND = {
					is_absolutism_active = yes
					NOT = { crown_land_share = 50 }
				}
			}
			NOT = { has_estate_privilege = estate_lowercastes_land_rights }
		}
		modifier = {
			factor = 0.8
			is_absolutism_active = yes
		}
	}
}

estate_lowercastes_unions = {
	icon = privilege_seek_support_of_clergy
	land_share = 10
	max_absolutism = -5
	loyalty = -0.05
	can_select = {
	}
	on_granted = {
	}
	penalties = {
	}
	benefits = {
		country_admin_power = 1
	}
	ai_will_do = {
		factor = 10
		modifier = {
			factor = 0
			OR = {
				NOT = { crown_land_share = 30 }
				estate_influence = {
					estate = estate_lowercastes
					influence = 75
				}
			}
			NOT = { has_estate_privilege = estate_lowercastes_unions }
		}
		modifier = {
			factor = 0.8
			OR = {
				NOT = { crown_land_share = 35 }
				AND = {
					is_absolutism_active = yes
					NOT = { crown_land_share = 55 }
				}
			}
			NOT = { has_estate_privilege = estate_lowercastes_unions }
		}
		modifier = {
			factor = 0.8
			is_absolutism_active = yes
		}
		modifier = {
			factor = 1.25
			NOT = { adm = 2 }
		}
		modifier = {
			factor = 0.8
			adm = 5
		}
	}
}

estate_lowercastes_independent_experts = {
	icon = privilege_empty_throne
	max_absolutism = -5
	influence = 0.1
	loyalty = 0.05
	penalties = {
		stability_cost_modifier = 0.1
	}
	benefits = {
		adm_advisor_cost = -0.25
	}
	ai_will_do = {
		factor = 10
		modifier = {
			factor = 0.5
			is_absolutism_active = yes
		}
		modifier = {
			factor = 1.25
			NOT = { adm = 2 }
		}
		modifier = {
			factor = 0.8
			adm = 5
		}
	}
}

estate_lowercastes_new_world_colonies = {
	icon = privilege_new_world_mission
	max_absolutism = -5
	loyalty = 0.05
	influence = 0.05
	is_valid = {
		OR = {
			num_of_colonists = 1
			num_of_colonies = 1
		}
	}
	penalties = {
	}
	benefits = {
		native_assimilation = 0.5
	}
	ai_will_do = {
		factor = 0
	}
}

estate_lowercastes_supporting_congregations = {
	icon = privilege_recruit_minister
	max_absolutism = -5
	influence = 0.10
	conditional_modifier = {
		trigger = {
			if = {
				limit = {
					has_dlc = "Common Sense"
				}
				#NOT = { religion = righteous_path }
				NOT = { religion = protestant }
				NOT = { religion = buddhism }
				NOT = { religion = vajrayana }
				NOT = { religion = mahayana }
			}
			if = {
				limit = {
					has_dlc = "Wealth of Nations"
				}
				NOT = { religion = corinite }
				#NOT = { religion = reformed }
			}
			if = {
				limit = {
					has_dlc = "Cradle of Civilization"
				}
				NOT = { religion_group = fey_religion }
				#NOT = { religion_group = muslim }
			}
			if = {
				limit = {
					has_dlc = "Mandate of Heaven"
				}
				NOT = { religion = the_thought }
				#NOT = { religion = confucianism }
			}
			if = {
				limit = {
					has_dlc = "Third Rome"
				}
				NOT = { religion = orthodox }
			}
			NOT = { religion = great_dookan }
			NOT = { religion = the_hunt }
			#NOT = { religion = anglican }
		}
		modifier = {
			missionary_maintenance_cost = -0.2
		}
	}
	conditional_modifier = {
		trigger = {
			has_dlc = "Common Sense"
			OR = {
				religion = buddhism
				religion = vajrayana
				religion = mahayana
			}
		}
		modifier = {
			yearly_karma_decay = 0.005
		}
	}
	conditional_modifier = {
		trigger = {
			has_dlc = "Common Sense"
			religion = protestant
		}
		modifier = {
			church_power_modifier = 0.1
		}
	}
	conditional_modifier = {
		trigger = {
			has_dlc = "Wealth of Nations"
			#religion = reformed
			religion = corinite
		}
		modifier = {
			monthly_fervor_increase = 0.5
		}
	}
	conditional_modifier = {
		trigger = {
			has_dlc = "Cradle of Civilization"
			#religion_group = muslim
			religion_group = fey_religion
		}
		modifier = {
			monthly_piety = 0.001
		}
	}
	conditional_modifier = {
		trigger = {
			has_dlc = "Mandate of Heaven"
			#religion = confucianism
			religion = the_thought
		}
		modifier = {
			yearly_harmony = 0.25
		}
	}
	conditional_modifier = {
		trigger = {
			has_dlc = "Third Rome"
			religion = orthodox
		}
		modifier = {
			yearly_patriarch_authority = 0.005
		}
	}
	conditional_modifier = {
		trigger = {
			#religion = anglican
			OR = {
				religion = great_dookan
				religion = the_hunt
			}
		}
		modifier = {
			church_power_modifier = 0.1
		}
	}
	penalties = {
	}
	benefits = {
	}
	ai_will_do = {
		factor = 10
		modifier = {
			factor = 0.5
			is_absolutism_active = yes
		}
		modifier = {
			factor = 0.5
			OR = {
				religion = protestant
				religion = anglican
			}
			religion = protestant
			num_of_aspects = 3
		}
	}
}

estate_lowercastes_less_oversight = {
	icon = privilege_tolerance_heathen
	max_absolutism = -10
	loyalty = 0.1
	influence = 0.1
	penalties = {
	}
	benefits = {
	}
	ai_will_do = {
		factor = 10
		modifier = {
			factor = 0
			is_absolutism_active = yes
		}
	}
}

estate_lowercastes_monopoly_of_incense = {
	icon = privilege_monopoly_of_goods_incence
	max_absolutism = -10
	loyalty = 0.1
	is_valid = {
		has_dlc = "Emperor"
		any_owned_province = {
			trade_goods = incense
		}
	}
	can_select = {
		custom_trigger_tooltip = {
			tooltip = unavailable_during_revolution_disaster
			NOT = { has_disaster = revolution }
			NOT = {
				has_disaster_progress = {
					disaster = revolution
					value = 1
				}
			}
			# NOT = { has_disaster = french_revolution }
			# NOT = {
				# has_disaster_progress = {
					# disaster = french_revolution
					# value = 1
				# }
			# }
		}
	}
	on_granted = {
		add_mercantilism = 1
		add_years_of_owned_provinces_production_income = {
			years = 8
			trigger = {
				trade_goods = incense
			}
			custom_tooltip = MONOPOLY_INCOME_INCENSE_DESC
		}
		custom_tooltip = estate_lowercastes_monopoly_of_incense_effect_tooltip
		hidden_effect = {
			every_owned_province = {
				limit = {
					trade_goods = incense
				}
				add_province_modifier = {
					name = estate_lowercastes_monopoly_of_incense_mod
					duration = -1
				}
			}
		}
	}
	on_revoked = {
		custom_tooltip = estate_lowercastes_monopoly_of_incense_revoke_tooltip
		hidden_effect = {
			every_owned_province = {
				limit = {
					has_province_modifier = estate_lowercastes_monopoly_of_incense_mod
				}
				remove_province_modifier = estate_lowercastes_monopoly_of_incense_mod
			}
		}
	}
	on_invalid = {
		custom_tooltip = estate_lowercastes_monopoly_of_incense_revoke_tooltip
		hidden_effect = {
			every_owned_province = {
				limit = {
					has_province_modifier = estate_lowercastes_monopoly_of_incense_mod
				}
				remove_province_modifier = estate_lowercastes_monopoly_of_incense_mod
			}
		}
	}
	penalties = {
	}
	benefits = {
	}
	cooldown_years = 10
	on_cooldown_expires = {
		country_event = { id = monopoly_privileges.8 }
	}
	ai_will_do = {
		factor = 0
	}
}

estate_lowercastes_monopoly_of_wool = {
	icon = privilege_monopoly_of_goods_wool
	max_absolutism = -10
	loyalty = 0.1
	is_valid = {
		has_dlc = "Emperor"
		any_owned_province = {
			trade_goods = wool
		}
	}
	can_select = {
		custom_trigger_tooltip = {
			tooltip = unavailable_during_revolution_disaster
			NOT = { has_disaster = revolution }
			NOT = {
				has_disaster_progress = {
					disaster = revolution
					value = 1
				}
			}
			# NOT = { has_disaster = french_revolution }
			# NOT = {
				# has_disaster_progress = {
					# disaster = french_revolution
					# value = 1
				# }
			# }
		}
	}
	on_granted = {
		add_mercantilism = 1
		add_years_of_owned_provinces_production_income = {
			years = 8
			trigger = {
				trade_goods = wool
			}
			custom_tooltip = MONOPOLY_INCOME_WOOL_DESC
		}
		custom_tooltip = estate_lowercastes_monopoly_of_wool_effect_tooltip
		hidden_effect = {
			every_owned_province = {
				limit = {
					trade_goods = wool
				}
				add_province_modifier = {
					name = estate_lowercastes_monopoly_of_wool_mod
					duration = -1
				}
			}
		}
	}
	on_revoked = {
		custom_tooltip = estate_lowercastes_monopoly_of_wool_revoke_tooltip
		hidden_effect = {
			every_owned_province = {
				limit = {
					has_province_modifier = estate_lowercastes_monopoly_of_wool_mod
				}
				remove_province_modifier = estate_lowercastes_monopoly_of_wool_mod
			}
		}
	}
	on_invalid = {
		custom_tooltip = estate_lowercastes_monopoly_of_wool_revoke_tooltip
		hidden_effect = {
			every_owned_province = {
				limit = {
					has_province_modifier = estate_lowercastes_monopoly_of_wool_mod
				}
				remove_province_modifier = estate_lowercastes_monopoly_of_wool_mod
			}
		}
	}
	penalties = {
	}
	benefits = {
	}
	cooldown_years = 10
	on_cooldown_expires = {
		country_event = { id = monopoly_privileges.9 }
	}
	ai_will_do = {
		factor = 0
	}
}

estate_lowercastes_monopoly_of_wine = {
	icon = privilege_monopoly_of_goods_wine
	max_absolutism = -10
	loyalty = 0.1
	is_valid = {
		has_dlc = "Emperor"
		NOT = { religion_group = muslim }
		any_owned_province = {
			trade_goods = wine
		}
	}
	can_select = {
		custom_trigger_tooltip = {
			tooltip = unavailable_during_revolution_disaster
			NOT = { has_disaster = revolution }
			NOT = {
				has_disaster_progress = {
					disaster = revolution
					value = 1
				}
			}
			# NOT = { has_disaster = french_revolution }
			# NOT = {
				# has_disaster_progress = {
					# disaster = french_revolution
					# value = 1
				# }
			# }
		}
	}
	on_granted = {
		add_mercantilism = 1
		add_years_of_owned_provinces_production_income = {
			years = 8
			trigger = {
				trade_goods = wine
			}
			custom_tooltip = MONOPOLY_INCOME_WINE_DESC
		}
		custom_tooltip = estate_lowercastes_monopoly_of_wine_effect_tooltip
		hidden_effect = {
			every_owned_province = {
				limit = {
					trade_goods = wine
				}
				add_province_modifier = {
					name = estate_lowercastes_monopoly_of_wine_mod
					duration = -1
				}
			}
		}
	}
	on_revoked = {
		custom_tooltip = estate_lowercastes_monopoly_of_wine_revoke_tooltip
		hidden_effect = {
			every_owned_province = {
				limit = {
					has_province_modifier = estate_lowercastes_monopoly_of_wine_mod
				}
				remove_province_modifier = estate_lowercastes_monopoly_of_wine_mod
			}
		}
	}
	on_invalid = {
		custom_tooltip = estate_lowercastes_monopoly_of_wine_revoke_tooltip
		hidden_effect = {
			every_owned_province = {
				limit = {
					has_province_modifier = estate_lowercastes_monopoly_of_wine_mod
				}
				remove_province_modifier = estate_lowercastes_monopoly_of_wine_mod
			}
		}
	}
	penalties = {
	}
	benefits = {
	}
	cooldown_years = 10
	on_cooldown_expires = {
		country_event = { id = monopoly_privileges.10 }
	}
	ai_will_do = {
		factor = 0
	}
}

estate_lowercastes_monopoly_of_slaves = {
	icon = privilege_monopoly_of_goods_slaves
	max_absolutism = -10
	loyalty = 0.1
	is_valid = {
		has_dlc = "Emperor"
		religion = nahuatl
		any_owned_province = {
			trade_goods = slaves
		}
	}
	can_select = {
		custom_trigger_tooltip = {
			tooltip = unavailable_during_revolution_disaster
			NOT = { has_disaster = revolution }
			NOT = {
				has_disaster_progress = {
					disaster = revolution
					value = 1
				}
			}
			# NOT = { has_disaster = french_revolution }
			# NOT = {
				# has_disaster_progress = {
					# disaster = french_revolution
					# value = 1
				# }
			# }
		}
	}
	on_granted = {
		add_mercantilism = 1
		add_years_of_owned_provinces_production_income = {
			years = 8
			trigger = {
				trade_goods = slaves
			}
			custom_tooltip = MONOPOLY_INCOME_SLAVES_DESC
		}
		custom_tooltip = estate_lowercastes_monopoly_of_slaves_effect_tooltip
		hidden_effect = {
			every_owned_province = {
				limit = {
					trade_goods = slaves
				}
				add_province_modifier = {
					name = estate_lowercastes_monopoly_of_slaves_mod
					duration = -1
				}
			}
		}
	}
	on_revoked = {
		custom_tooltip = estate_lowercastes_monopoly_of_slaves_revoke_tooltip
		hidden_effect = {
			every_owned_province = {
				limit = {
					has_province_modifier = estate_lowercastes_monopoly_of_slaves_mod
				}
				remove_province_modifier = estate_lowercastes_monopoly_of_slaves_mod
			}
		}
	}
	on_invalid = {
		custom_tooltip = estate_lowercastes_monopoly_of_slaves_revoke_tooltip
		hidden_effect = {
			every_owned_province = {
				limit = {
					has_province_modifier = estate_lowercastes_monopoly_of_slaves_mod
				}
				remove_province_modifier = estate_lowercastes_monopoly_of_slaves_mod
			}
		}
	}
	penalties = {
	}
	benefits = {
	}
	cooldown_years = 10
	on_cooldown_expires = {
		country_event = { id = monopoly_privileges.11 }
	}
	ai_will_do = {
		factor = 0
	}
}
