estate_raj_ministries_raj_cohesion = {
	icon = privilege_raj_cohesion
	max_absolutism = -5
	is_valid = {

	}
	can_revoke = {
		always = no
	}
	on_granted = {
		custom_tooltip = raj_cohesion_explanation_tt
	}
	on_revoked = {
		custom_tooltip = raj_cohesion_explanation_tt
	}
	conditional_modifier = {
		trigger = {
			4411 = {
				check_variable = {
					which = raj_cohesion
					value = 80
				}
			}
		}
		modifier = {
			development_cost = -0.05
			global_unrest = -1
			raj_ministries_influence_modifier = 0.10
		}
	}
	conditional_modifier = {
		trigger = {
			4411 = {
				check_variable = {
					which = raj_cohesion
					value = 60
				}
				NOT = {
					check_variable = {
						which = raj_cohesion
						value = 80
					}
				}
			}
		}
		modifier = {

		}
	}
	conditional_modifier = {
		trigger = {
			4411 = {
				check_variable = {
					which = raj_cohesion
					value = 40
				}
				NOT = {
					check_variable = {
						which = raj_cohesion
						value = 60
					}
				}
			}
		}
		modifier = {
			development_cost = 0.05
			reduced_liberty_desire = -5
			global_unrest = 1
			raj_ministries_influence_modifier = -0.05
		}
		is_bad = yes
	}
	conditional_modifier = {
		trigger = {
			4411 = {
				check_variable = {
					which = raj_cohesion
					value = 20
				}
				NOT = {
					check_variable = {
						which = raj_cohesion
						value = 40
					}
				}
			}
		}
		modifier = {
			development_cost = 0.10
			reduced_liberty_desire = -10
			global_unrest = 2
			raj_ministries_influence_modifier = -0.10
		}
		is_bad = yes
	}
	conditional_modifier = {
		trigger = {
			4411 = {
				NOT = {
					check_variable = {
						which = raj_cohesion
						value = 20
					}
				}
			}
		}
		modifier = {
			development_cost = 0.20
			reduced_liberty_desire = -15
			global_unrest = 4
			raj_ministries_influence_modifier = -0.15
		}
		is_bad = yes
	}
	ai_will_do = {
		factor = 0
	}
}

estate_raj_ministries_land_rights = {
	icon = privilege_grant_autonomy
	land_share = 5
	max_absolutism = -5
	loyalty = 0.05
	influence = 0.05
	can_select = {
	}
	on_granted = {
	}
	penalties = {
	}
	benefits = {
		governing_capacity = 100
	}
	ai_will_do = {
		factor = 5
		modifier = {
			factor = 1.4
			num_of_territories = 5
		}
		modifier = {
			factor = 1.5
			num_of_territories = 10
		}
		modifier = {
			factor = 1.5
			num_of_territories = 15
		}
		modifier = {
			factor = 0
			OR = {
				NOT = { crown_land_share = 25 }
				estate_influence = {
					estate = estate_raj_ministries
					influence = 75
				}
			}
			NOT = { has_estate_privilege = estate_raj_ministries_land_rights }
		}
		modifier = {
			factor = 3
			OR = {
				AND = {
					governing_capacity_percentage = 0.9
					NOT = { has_estate_privilege = estate_raj_ministries_land_rights }
				}
				#The trigger below should make sure that the AI actually keeps this privilege when enacting it early game
				AND = {
					governing_capacity_percentage = 0.6
					has_estate_privilege = estate_raj_ministries_land_rights
				}
			}
		}
		modifier = {
			factor = 0
			NOT = { governing_capacity_percentage = 0.5 }
		}
		modifier = {
			factor = 0.8
			OR = {
				NOT = { crown_land_share = 40 }
				AND = {
					is_absolutism_active = yes
					NOT = { crown_land_share = 60 }
				}
			}
			NOT = { has_estate_privilege = estate_raj_ministries_land_rights }
		}
		modifier = {
			factor = 0.8
			OR = {
				NOT = { crown_land_share = 30 }
				AND = {
					is_absolutism_active = yes
					NOT = { crown_land_share = 50 }
				}
			}
			NOT = { has_estate_privilege = estate_raj_ministries_land_rights }
		}
		modifier = {
			factor = 0.8
			is_absolutism_active = yes
		}
	}
}

estate_raj_ministries_extend_education_grants = {
	icon = privilege_patronize_jain_families
	max_absolutism = -5
	influence = 0.05
	loyalty = 0.05
	benefits = {
		advisor_cost = -0.1
	}
	penalties = {
		global_tax_modifier = -0.1
	}
	ai_will_do = {
		factor = 0
	}
}

estate_raj_ministries_strict_caste_regulation = {
	icon = privilege_seek_support_of_clergy
	max_absolutism = -5
	loyalty = 0.1
	influence = 0.05
	penalties = {
		advisor_cost = 0.05
		advisor_pool = -1
	}
	benefits = {
		same_culture_advisor_cost = -0.2
	}
	on_revoked = {
		#Add unrest
	}
	ai_will_do = {
		factor = 10
		modifier = {
			factor = 0
			is_absolutism_active = yes
		}
	}
}

estate_raj_ministries_ministerial_tithes = {
	icon = privilege_build_jain_temple
	max_absolutism = -5
	loyalty = 0.05
	influence = 0.05
	penalties = {
		global_tax_modifier = -0.1
	}
	modifier_by_land_ownership = {
		build_cost = -0.5
	}
	ai_will_do = {
		factor = 0
	}
}

estate_raj_ministries_delegate_territorial_management = {
	icon = privilege_grant_new_world_charter
	max_absolutism = -10
	influence = 0.1
	loyalty = 0.05
	land_share = 5
	benefits = {
		development_cost = -0.05
	}
	modifier_by_land_ownership = {
		state_maintenance_modifier = -0.5
		vassal_income = 0.5
	}
	mechanics = {
		exempt_from_seize_land
	}
	ai_will_do = {
		factor = 0
	}
}

estate_raj_ministries_ceremonial_ruler_act = {
	icon = privilege_royal_authority
	max_absolutism = -40
	loyalty = 0.05
	influence = 0.1
	land_share = 10
	benefits = {
		advisor_cost = -0.33
	}
	penalties = {
		all_power_cost = 0.05
	}
	ai_will_do = {
		factor = 0
	}
}

estate_raj_ministries_establish_the_ministry_of_war = {
	icon = privilege_promote_purbias
	max_absolutism = -5
	influence = 0.1
	loyalty = 0.05
	penalties = {
		army_tradition_decay = 0.01
	}
	benefits = {
		free_mil_policy = 1
		possible_mil_policy = 1
	}
	ai_will_do = {
		factor = 1
		modifier = {
			factor = 0
			is_absolutism_active = yes
		}
	}
}

estate_raj_ministries_control_over_monetary_policy = {
	icon = privilege_give_money
	max_absolutism = -10
	influence = 0.05
	loyalty = 0.05
	is_valid = {
		has_dlc = "Emperor"
	}
	penalties = {
		all_power_cost = 0.05
	}
	benefits = {
		inflation_reduction = 0.15
		interest = -0.5
		production_efficiency = 0.05
	}
	ai_will_do = {
		factor = 1
		modifier = {
			factor = 10
			OR = {
				inflation = 15
				num_of_loans = 15
			}
		}
		modifier = {
			factor = 0
			is_absolutism_active = yes
		}
	}
}

estate_raj_ministries_expanded_senaptia_ranks = {
	icon = privilege_supply_arms
	max_absolutism = -5
	influence = 0.05
	loyalty = 0.05
	is_valid = {
		has_reform = raja_reform
		NOT = { has_estate_privilege = estate_raj_ministries_reduced_senaptia_ranks }
	}
	penalties = {
		land_forcelimit_modifier = -0.1
	}
	benefits = {

	}
	on_granted = {
		custom_tooltip = estate_raj_ministries_expanded_senaptia_ranks_tt #increase max senaptia ranks by 2
		hidden_effect = {
			4411 = {
				change_variable = {
					which = raj_max_allowed_senaptia
					value = 2
				}
			}
		}
	}
	on_revoked = {
		custom_tooltip = estate_raj_ministries_expanded_senaptia_ranks_tt #increase max senaptia ranks by 2
		hidden_effect = {
			4411 = {
				change_variable = {
					which = raj_max_allowed_senaptia
					value = -2
				}
			}
		}
	}
	ai_will_do = {
		factor = 1
		modifier = {
			factor = 0
			is_absolutism_active = yes
		}
	}
}

estate_raj_ministries_reduced_senaptia_ranks = {
	icon = privilege_supply_arms
	max_absolutism = -5
	influence = 0.05
	loyalty = 0.05
	is_valid = {
		has_reform = raja_reform
		NOT = { has_estate_privilege = estate_raj_ministries_expanded_senaptia_ranks }
	}
	penalties = {

	}
	benefits = {
		vassal_income = 0.2
	}
	on_granted = {
		custom_tooltip = estate_raj_ministries_reduced_senaptia_ranks_tt #decrease max senaptia ranks by 2
		hidden_effect = {
			4411 = {
				change_variable = {
					which = raj_max_allowed_senaptia
					value = -2
				}
			}
		}
	}
	on_revoked = {
		custom_tooltip = estate_raj_ministries_reduced_senaptia_ranks_tt #decrease max senaptia ranks by 2
		hidden_effect = {
			4411 = {
				change_variable = {
					which = raj_max_allowed_senaptia
					value = 2
				}
			}
		}
	}
	ai_will_do = {
		factor = 1
		modifier = {
			factor = 0
			is_absolutism_active = yes
		}
	}
}

estate_raj_ministries_ministerial_census = {
	icon = privilege_royal_authority
	max_absolutism = -5
	influence = 0.05
	loyalty = 0.05
	is_valid = {
		has_reform = raja_reform
		NOT = { has_country_flag = revoke_ministry_census }
	}
	can_select = {
		adm_power = 50
		dip_power = 50
		mil_power = 50
	}
	penalties = {
		global_tax_modifier = -0.1
	}
	on_granted = {
		add_adm_power = -50
		add_dip_power = -50
		add_mil_power = -50
		custom_tooltip = estate_raj_ministries_ministerial_census_tt
		hidden_effect = {
			every_subject_country = {
				country_event = {
					id = rahenraj.1200
					days = 14
					random = 30
				}
			}
		}
		raj_cohesion_change_absolute = { amount = 5 }
	}
	on_revoked = {

	}
	cooldown_years = 10
	on_cooldown_expires = {
		set_country_flag = revoke_ministry_census # on_invalid gives a notification, on_revoked does not.
	}
	on_invalid = {
		clr_country_flag = revoke_ministry_census
	}
	ai_will_do = {
		factor = 1
	}
}
