
vampire_blood_invitation = {
	category = covert
	
	is_visible = {
		ai = no
		ROOT = { has_country_flag = founded_blood_court }
		FROM = {
			capital_scope = {
				OR = {
					continent = europe
					range = ROOT
				}
			}
			has_country_flag = has_vampires
            NOT = { has_estate_privilege = estate_vampires_organization_the_blood_court }
			NOT = { has_estate_privilege = estate_vampires_organization_vampiric_emigres }
			#only allowed for nations that have Bloody Aristocracy or Vampire Lord
		}
    }
	
	is_allowed = {
		ROOT = {
			has_country_flag = founded_blood_court
			reverse_has_opinion = {
				who = FROM
				value = 40
			}
			has_spy_network_in = {
				who = FROM
				value = 20
			}
		}
		FROM = {
			capital_scope = {
				OR = {
					continent = europe
					range = ROOT
				}
			}
			has_country_flag = has_vampires
            NOT = { has_estate_privilege = estate_vampires_organization_the_blood_court }
			NOT = { has_estate_privilege = estate_vampires_organization_vampiric_emigres }
		}
	}

    on_accept = {
		FROM = {
			country_event = {
				id = corvuria.4#blood court invitation event
				days = 5
				random = 5
			}
		}
		ROOT = {
			add_spy_network_in = {
   				who = FROM
    			value = -20
			}
		}
	}
	ai_will_do = {
		always = no
	}
}