
vampire_spread_action = {
	category = covert
	
	is_visible = {
		ai = no
		has_estate = estate_vampires
		FROM = {
			capital_scope = {
				OR = {
					continent = europe
					range = ROOT
				}
			}
			NOT = {
				has_country_flag = has_vampires
				has_country_flag = no_free_estate_slots
			}
		}
    }
	
	is_allowed = {
		ai = no
		ROOT = {
			NOT = {
				has_country_modifier = vamp_spread_cooldown
			}
			has_spy_network_in = {
				who = FROM
				value = 50
			}
			estate_territory = {
    			estate = estate_vampires
    			territory = 2
			}
			has_estate = estate_vampires
			has_estate_privilege = estate_vampires_law_state_collusion_masquerade
			estate_influence = {
    			estate = estate_vampires
    			influence = 60
			}
		}
		#UNUSED limits spreading to 1 at a time

		#NOT = {
		#	any_country = {
		#		has_country_flag = currently_spreading_vampires
		#	}
		#}
		FROM = {
			capital_scope = {
				OR = {
					continent = europe
					range = ROOT
				}
			}
			NOT = {
				has_country_flag = has_vampires
				has_country_flag = no_free_estate_slots
			}
		}
	}

    on_accept = {
		ROOT = {
			save_event_target_as = vampire_origin
			change_estate_land_share = {
				estate = estate_vampires
				share = -1
			}
			add_spy_network_in = {
   				who = FROM
    			value = -50
			}
			#UNUSED limits spreading to 1 at a time

			#set_country_flag = {
			#	name = currently_spreading_vampires
			#	duration = -1
			#}
			add_country_modifier ={
				name = vamp_spread_cooldown
				duration = 1825
			}
		}
		FROM = {
			country_event = { id = vampires_estate_events.11 days = 7 }
		}
	}
	ai_will_do = {
		always = no
	}
}
