
gawed_column_1 = {
	slot = 1
	generic = no
	ai = yes
	potential = {
		tag = A13
	}
	has_country_shield = yes
	
	gawed_wars_of_dominion = {
		icon = mission_unite_home_region
		required_missions = { }
		position = 1
		
		trigger = {
			if = {
				limit = {
					exists = A01
				}
				war_with = A01
			}
		}
		
		effect = {
			small_country_region = {
				limit = {
					NOT = { is_core = ROOT }
					NOT = { owned_by = ROOT }
				}
				add_permanent_claim = ROOT
			}
			gnomish_pass_area = {
				limit = {
					NOT = { is_core = ROOT }
					NOT = { owned_by = ROOT }
				}
				add_permanent_claim = ROOT
			}
			reaver_coast_area = {
				limit = {
					NOT = { is_core = ROOT }
					NOT = { owned_by = ROOT }
				}
				add_permanent_claim = ROOT
			}
			add_country_modifier = {
				name = "army_enthusiasm"
				duration = 7300 #20 years
			}
		}
	}
	
	gawed_halfling_suzerainty = {
		icon = mission_monarch_in_throne_room
		required_missions = { gawed_wars_of_dominion }
		position = 2
		
		provinces_to_highlight = {
			region = small_country_region
			NOT = {
				country_or_non_sovereign_subject_holds = ROOT
			}
		}
		
		trigger = {
			small_country_region = {
				type = all
				country_or_non_sovereign_subject_holds = ROOT
			}
		}

		effect = {
			small_country_region = {
				add_province_modifier = {
					name = "faster_integration"
					duration = 7300 #20 years
				}
			}
			beepeck_area = {
				limit = {
					NOT = { is_core = ROOT }
					NOT = { owned_by = ROOT }
				}
				add_permanent_claim = ROOT
			}
			exwes_area = {
				limit = {
					NOT = { is_core = ROOT }
					NOT = { owned_by = ROOT }
				}
				add_permanent_claim = ROOT
			}
			iochand_area = {
				limit = {
					NOT = { is_core = ROOT }
					NOT = { owned_by = ROOT }
				}
				add_permanent_claim = ROOT
			}
		}
	}
	
	gawed_consolidate_our_hold = {
		icon = consolidate_switzerland
		required_missions = { gawed_halfling_suzerainty }
		position = 3
		
		provinces_to_highlight = {
			OR = {
				area = beepeck_area
				area = exwes_area
				area = iochand_area
			}
			NOT = {
				country_or_non_sovereign_subject_holds = ROOT
			}
		}
		
		trigger = {
			beepeck_area = {
				type = all
				country_or_non_sovereign_subject_holds = ROOT
			}
			exwes_area = {
				type = all
				country_or_non_sovereign_subject_holds = ROOT
			}
			iochand_area = {
				type = all
				country_or_non_sovereign_subject_holds = ROOT
			}
		}
		
		effect = {
			southroy_area = {
				limit = {
					NOT = { is_core = ROOT }
					NOT = { owned_by = ROOT }
				}
				add_permanent_claim = ROOT
			}
			redglades_area = {
				limit = {
					NOT = { is_core = ROOT }
					NOT = { owned_by = ROOT }
				}
				add_permanent_claim = ROOT
			}
		}
	}
	
	gawed_burning_the_redglades = {
		icon = mission_burning_man
		required_missions = { gawed_consolidate_our_hold }
		position = 4
		
		provinces_to_highlight = {
			area = redglades_area
			NOT = {
				country_or_non_sovereign_subject_holds = ROOT
			}
		}
		
		trigger = {
			redglades_area = {
				type = all
				country_or_non_sovereign_subject_holds = ROOT
			}
		}
		
		effect = {
			add_country_modifier = {
				name = "generic_into_lorent"
				duration = 7300 #20 years
			}
			
			country_event = { id = flavor_gawed.1 days = 1 }
			ionnidar_area = {
				limit = {
					NOT = { is_core = ROOT }
					NOT = { owned_by = ROOT }
				}
				add_permanent_claim = ROOT
			}
			upper_bloodwine_area = {
				limit = {
					NOT = { is_core = ROOT }
					NOT = { owned_by = ROOT }
				}
				add_permanent_claim = ROOT
			}
		}
	}
	
	gawed_sack_of_lorentaine = {
		icon = mission_burning_castle
		required_missions = { gawed_burning_the_redglades }
		position = 6
		
		provinces_to_highlight = {
			OR = {
				area = ionnidar_area
				area = upper_bloodwine_area
			}
			NOT = {
				country_or_non_sovereign_subject_holds = ROOT
			}
		}
		
		trigger = {
			ionnidar_area = {
				type = all
				country_or_non_sovereign_subject_holds = ROOT
			}
			upper_bloodwine_area = {
				type = all
				country_or_non_sovereign_subject_holds = ROOT
			}
			67 = { #Lorentaine
				owned_by = ROOT
			}
		}
		
		effect = {
			67 = { #Lorentaine
				add_base_tax = -3
				add_base_production = -3
				add_base_manpower = -3
				add_devastation = 100
			}
			capital_scope = {
				add_base_tax = 2
				add_base_production = 2
				add_base_manpower = 2
			}
			add_mil_power = 100
		}
	}
	
	# gawed_gawedi_wars_of_religion = {
		# icon = influence_the_church
		# required_missions = {  }
		# position = 9
		
		# trigger = {
		
		# }
		
		# effect = {
		
		# }
	# }
}


gawed_column_2 = {
	slot = 2
	generic = no
	ai = yes
	potential = {
		tag = A13
	}
	has_country_shield = yes
	
	gawed_raise_invasion_force = {
		icon = mission_assemble_an_army
		required_missions = { }
		position = 1
		
		trigger = {
			army_size_percentage = 0.75
			num_of_generals = 1
		}
		
		effect = {
			vertesk_area = {
				limit = {
					NOT = { is_core = ROOT }
					NOT = { owned_by = ROOT }
				}
				add_permanent_claim = ROOT
			}
			floodmarches_area = {
				limit = {
					NOT = { is_core = ROOT }
					NOT = { owned_by = ROOT }
				}
				add_permanent_claim = ROOT
			}
		}
	}
	
	gawed_reclaim_vertesk = {
		icon = develop_konigsberg
		required_missions = { gawed_raise_invasion_force }
		position = 2

		provinces_to_highlight = {
			OR = {
				area = vertesk_area
				area = floodmarches_area
			}
			NOT = {
				country_or_non_sovereign_subject_holds = ROOT
			}
		}
		trigger = {
			vertesk_area = {
				type = all
				country_or_non_sovereign_subject_holds = ROOT
			}
			floodmarches_area = {
				type = all
				country_or_non_sovereign_subject_holds = ROOT
			}
		}
		effect = {
			add_casus_belli = {
				target = A76 #Uelaire
				type = cb_vassalize_mission
				months = 300
			}
			arbaran_area = {
				limit = {
					NOT = { is_core = ROOT }
					NOT = { owned_by = ROOT }
				}
				add_permanent_claim = ROOT
			}
			derwing_area = {
				limit = {
					NOT = { is_core = ROOT }
					NOT = { owned_by = ROOT }
				}
				add_permanent_claim = ROOT
			}
			golden_plains_area = {
				limit = {
					NOT = { is_core = ROOT }
					NOT = { owned_by = ROOT }
				}
				add_permanent_claim = ROOT
			}
			cestir_area = {
				limit = {
					NOT = { is_core = ROOT }
					NOT = { owned_by = ROOT }
				}
				add_permanent_claim = ROOT
			}
			dames_forehead_area = {
				limit = {
					NOT = { is_core = ROOT }
					NOT = { owned_by = ROOT }
				}
				add_permanent_claim = ROOT
			}
		}
	}
	
	gawed_invasion_of_arbaran = {
		icon = mission_have_two_subjects
		required_missions = { gawed_reclaim_vertesk }
		position = 3

		provinces_to_highlight = {
			OR = {
				area = arbaran_area
				area = derwing_area
				area = golden_plains_area
				area = cestir_area
			}
			NOT = {
				country_or_non_sovereign_subject_holds = ROOT
			}
		}
		trigger = {
			arbaran_area = {
				type = all
				country_or_non_sovereign_subject_holds = ROOT
			}
			derwing_area = {
				type = all
				country_or_non_sovereign_subject_holds = ROOT
			}
			golden_plains_area = {
				type = all
				country_or_non_sovereign_subject_holds = ROOT
			}
			cestir_area = {
				type = all
				country_or_non_sovereign_subject_holds = ROOT
			}
		}
		effect = {
			damescrown_area = {
				limit = {
					NOT = { is_core = ROOT }
					NOT = { owned_by = ROOT }
				}
				add_permanent_claim = ROOT
			}
			teagansfield_area = {
				limit = {
					NOT = { is_core = ROOT }
					NOT = { owned_by = ROOT }
				}
				add_permanent_claim = ROOT
			}
		}
	}
		
	gawed_invasion_of_damescrown = {
		icon = dominant_economy
		required_missions = { gawed_invasion_of_arbaran }
		position = 4

		provinces_to_highlight = {
			OR = {
				area = damescrown_area
				area = teagansfield_area
			}
			NOT = {
				country_or_non_sovereign_subject_holds = ROOT
			}
		}
		trigger = {
			damescrown_area = {
				type = all
				country_or_non_sovereign_subject_holds = ROOT
			}
			teagansfield_area = {
				type = all
				country_or_non_sovereign_subject_holds = ROOT
			}
		}
		effect = {
			heartland_borders_area = {
				limit = {
					NOT = { is_core = ROOT }
					NOT = { owned_by = ROOT }
				}
				add_permanent_claim = ROOT
			}
			911 = { #Telgeir
				if = {
					limit = {
						NOT = {
							owned_by = ROOT
							is_core = ROOT
						}
					}
					add_permanent_claim = ROOT
				}
			}
			259 = { #Coastroad
				if = {
					limit = {
						NOT = {
							owned_by = ROOT
							is_core = ROOT
						}
					}
					add_permanent_claim = ROOT
				}
			}
			north_ibevar_area = {
				limit = {
					NOT = { is_core = ROOT }
					NOT = { owned_by = ROOT }
				}
				add_permanent_claim = ROOT
			}
			south_ibevar_area = {
				limit = {
					NOT = { is_core = ROOT }
					NOT = { owned_by = ROOT }
				}
				add_permanent_claim = ROOT
			}
			silent_repose_area = {
				limit = {
					NOT = { is_core = ROOT }
					NOT = { owned_by = ROOT }
				}
				add_permanent_claim = ROOT
			}
		}
	}
	
	gawed_fall_of_the_elfrealm = {
		icon = mission_destroyed_city
		required_missions = { gawed_invasion_of_damescrown }
		position = 6
		
		provinces_to_highlight = {
			OR = {
				area = north_ibevar_area
				area = south_ibevar_area
				area = silent_repose_area
			}
			NOT = {
				country_or_non_sovereign_subject_holds = ROOT
			}
		}
		
		trigger = {
			north_ibevar_area = {
				type = all
				country_or_non_sovereign_subject_holds = ROOT
			}
			south_ibevar_area = {
				type = all
				country_or_non_sovereign_subject_holds = ROOT
			}
			silent_repose_area = {
				type = all
				country_or_non_sovereign_subject_holds = ROOT
			}
			352 = { #Ibevar
				owned_by = ROOT
			}
		}
		
		effect = {
			352 = { #Ibevar
				add_base_tax = -3
				add_base_production = -3
				add_base_manpower = -3
				add_devastation = 100
			}
			capital_scope = {
				add_base_tax = 2
				add_base_production = 2
				add_base_manpower = 2
			}
			add_mil_power = 100
		}
	}
	
	gawed_end_elven_domination = {
		icon = give_him_back_his_legions
		required_missions = {
			gawed_sack_of_lorentaine
			gawed_fall_of_the_elfrealm
			gawed_dismantle_the_empire
		}
		position = 7
		
		provinces_to_highlight = {
			superregion = western_cannor_superregion
			owner = {
				culture_group = elven
				government_rank = 2
			}
			NOT = {
				country_or_non_sovereign_subject_holds = ROOT
			}
		}
		
		trigger = {
			custom_trigger_tooltip = {
				tooltip = gawed_elven_domination_tooltip
				NOT = {
					western_cannor_superregion = {
						owner = {
							culture_group = elven
							government_rank = 2
						}
					}
				}
			}
		}
		
		effect = {
			add_country_modifier = {
				name = "gawed_ended_elven_domination"
				duration = -1
			}
		}
	}
	
	# gawed_northern_league = {
		# icon = mission_rb_hanseatic_east
		# required_missions = {  }
		# position = 9
		
		# trigger = {
		
		# }
		
		# effect = {
		
		# }
	# }
}

gawed_column_3 = {
	slot = 3
	generic = no
	ai = yes
	potential = {
		tag = A13
	}
	has_country_shield = yes
		
	gawed_pacify_the_kobolds = {
		icon = mission_recruit_streltsy
		required_missions = { gawed_integrate_westmoors }
		position = 2

		provinces_to_highlight = {
			OR = {
				area = gnomish_pass_area
				area = coddorran_heights_area
			}
			NOT = {
				country_or_non_sovereign_subject_holds = ROOT
			}
		}
		trigger = {
			gnomish_pass_area = {
				type = all
				country_or_non_sovereign_subject_holds = ROOT
			}
			coddorran_heights_area = {
				type = all
				country_or_non_sovereign_subject_holds = ROOT
			}
		}
		effect = {
			dragonspine_area = {
				limit = {
					NOT = { is_core = ROOT }
					NOT = { owned_by = ROOT }
				}
				add_permanent_claim = ROOT
			}
			dragonpoint_area = {
				limit = {
					NOT = { is_core = ROOT }
					NOT = { owned_by = ROOT }
				}
				add_permanent_claim = ROOT
			}
			dragondowns_area = {
				limit = {
					NOT = { is_core = ROOT }
					NOT = { owned_by = ROOT }
				}
				add_permanent_claim = ROOT
			}
			183 = { #Foddimadd
				if = {
					limit = {
						NOT = {
							owned_by = ROOT
							is_core = ROOT
						}
					}
					add_permanent_claim = ROOT
				}
			}
		}
	}
	
	gawed_renovate_vertesk_arsenal = {
		icon = expand_the_arsenal
		required_missions = { gawed_reclaim_vertesk }
		position = 3
		
		provinces_to_highlight = {
			province_id = 216 #Vertesk
			NOT = {
				AND = {
					has_dock_building_trigger = yes
					has_shipyard_building_trigger = yes
				}
			}
		}
		
		trigger = {
			216 = { #Vertesk
				owned_by = ROOT
				has_dock_building_trigger = yes
				has_shipyard_building_trigger = yes
			}
		}

		effect = {
			216 = { #Vertesk
				add_permanent_province_modifier = {
					name = "gawed_vertesk_arsenal"
					duration = -1
				}
			}
		}
	}
	
	gawed_expel_the_vanburies = {
		icon = mission_assassination
		required_missions = { gawed_invasion_of_damescrown }
		position = 5
		
		provinces_to_highlight = {
			OR = {
				area = heartland_borders_area
				province_id = 911 #Telgeir
				province_id = 259 #Coastroad
			}
			NOT = {
				country_or_non_sovereign_subject_holds = ROOT
			}
		}
		
		trigger = {
			heartland_borders_area = {
				type = all
				country_or_non_sovereign_subject_holds = ROOT
			}
			911 = { #Telgeir
				country_or_non_sovereign_subject_holds = ROOT
			}
			259 = { #Coastroad
				country_or_non_sovereign_subject_holds = ROOT
			}
		}
		
		effect = {
			add_country_modifier = {
				name = "gawed_exile_of_house_vanbury"
				duration = 18250 #50 years
			}
		}
	}
	
	gawed_dismantle_the_empire = {
		icon = mission_burning_parthenon
		required_missions = { gawed_expel_the_vanburies }
		position = 6
		
		provinces_to_highlight = {
			OR = {
				AND = {
					owner = {
						OR = {
							is_elector = yes
							is_emperor = yes
						}
					}
					is_capital = yes
				}
				province_id = 8 #Anbenncost
			}
			NOT = {
				controlled_by = ROOT
			}
		}
		
		trigger = {
			eoa_is_dismantled = yes
			8 = { #Anbenncost
				controlled_by = ROOT
			}
		}
		
		effect = {
			8 = { #Anbenncost
				add_base_tax = -3
				add_base_production = -3
				add_base_manpower = -3
				add_devastation = 100
			}
			capital_scope = {
				add_base_tax = 2
				add_base_production = 2
				add_base_manpower = 2
			}
			add_mil_power = 100
		}
	}
	
	gawed_prospect_along_tributaries = {
		icon = mission_rb_prospect_for_coal
		required_missions = {  }
		position = 7
		
		provinces_to_highlight = {
			OR = {
				province_id = 217 #Talonmount
				province_id = 346 #Somberwold
			}
			NOT = {
				AND = {
					has_production_building_trigger = yes
					base_production = 5
				}
			}
		}
		
		trigger = {
			advisor = natural_scientist
			217 = { #Talonmount
				owned_by = ROOT
				has_production_building_trigger = yes
				base_production = 5
			}
			346 = { #Somberwold
				owned_by = ROOT
				has_production_building_trigger = yes
				base_production = 5
			}
		}

		effect = {
			217 = { #Talonmount
				change_trade_goods = copper
				add_base_tax = 1
				add_base_production = 1
				add_base_manpower = 1
			}
			346 = { #Somberwold
				change_trade_goods = iron
				add_base_tax = 1
				add_base_production = 1
				add_base_manpower = 1
			}
		}
	}
	
	gawed_alen_glassworks = {
		icon = bohemian_crystal
		required_missions = { gawed_prospect_along_tributaries }
		position = 8
		
		provinces_to_highlight = {
			OR = {
				province_id = 219 #Tenbury
				province_id = 339 #Elwick-upon-Alen
			}
			NOT = {
				AND = {
					has_production_building_trigger = yes
					has_tax_building_trigger = yes
					development = 20
				}
			}
		}
		
		trigger = {
			treasury = 500
			219 = { #Tenbury
				owned_by = ROOT
				num_free_building_slots = 1
				has_production_building_trigger = yes
				has_tax_building_trigger = yes
				development = 20
			}
			339 = { #Elwick-upon-Alen
				owned_by = ROOT
				num_free_building_slots = 1
				has_production_building_trigger = yes
				has_tax_building_trigger = yes
				development = 20
			}
		}

		effect = {
			219 = { #Tenbury
				change_trade_goods = glass
				add_building_construction = {
					building = mills
					speed = 1
					cost = 0.5
				}
			}
			339 = { #Elwick-upon-Alen
				change_trade_goods = glass
				add_building_construction = {
					building = mills
					speed = 1
					cost = 0.5
				}
			}
		}
	}
}

gawed_column_4 = {
	slot = 4
	generic = no
	ai = yes
	potential = {
		tag = A13
	}
	has_country_shield = yes
	
	gawed_integrate_westmoors = {
		icon = mission_rb_control_electors
		required_missions = {  }
		position = 1
		
		trigger = {
			NOT = { exists = A24 }
			westmoor_proper_area = {
				type = all
				owned_by = ROOT
			}
			moorhills_area = {
				type = all
				owned_by = ROOT
			}
			beronmoor_area = {
				type = all
				owned_by = ROOT
			}
		}
			
		effect = {
			westmoor_proper_area = {
				add_province_modifier = {
					name = "faster_integration"
					duration = 7300
				}
			}
			moorhills_area = {
				add_province_modifier = {
					name = "faster_integration"
					duration = 7300
				}
			}
			beronmoor_area = {
				add_province_modifier = {
					name = "faster_integration"
					duration = 7300
				}
			}
			
			custom_tooltip = gawed_integrate_westmoors_tooltip
			hidden_effect = {
				every_known_country = {
					limit = {
						capital_scope = {
							province_group = western_alenic_reach
						}
						culture_is_human = yes
						NOT = { is_subject = yes }
					}
					ROOT = {
						add_casus_belli = {
							target = PREV
							type = cb_vassalize_mission
							months = 600
						}
					}
				}
				
				western_alenic_reach = {
					limit = {
						NOT = { is_core = ROOT }
						NOT = { owned_by = ROOT }
						OR = {
							NOT = {
								owner = {
									capital_scope = {
										province_group = western_alenic_reach
									}
									culture_is_human = yes
									NOT = { is_subject = yes }
								}
							}
							ROOT = { ai = yes }
						}
					}
					add_permanent_claim = ROOT
				}
			}
			coddorran_heights_area = {
				limit = {
					NOT = { is_core = ROOT }
					NOT = { owned_by = ROOT }
				}
				add_permanent_claim = ROOT
			}
		}
	}
	
	gawed_dominate_alenic_cities = {
		icon = mission_kowtow
		required_missions = { gawed_integrate_westmoors }
		position = 2
		
		provinces_to_highlight = {
			province_group = western_alenic_reach
			NOT = {
				country_or_non_sovereign_subject_holds = ROOT
			}
		}
		
		trigger = {
			western_alenic_reach = {
				type = all
				country_or_non_sovereign_subject_holds = ROOT
			}
		}
			
		effect = {
			add_country_modifier = {
				name = "gawed_gawedi_naval_expansion"
				duration = 7300 #20 years
			}
		}
	}
	
	gawed_construct_a_navy = {
		icon = imperial_navy
		required_missions = {
			gawed_dominate_alenic_cities
			gawed_revitalize_western_ports
		}
		position = 3
		
		trigger = {
			navy_size = Z08 #Bjarnrik
			custom_trigger_tooltip = {
				tooltip = navy_size_20_tooltip
				navy_size = 20
			}
		}
			
		effect = {
			frostbridges_area = {
				limit = {
					NOT = { is_core = ROOT }
					NOT = { owned_by = ROOT }
				}
				add_permanent_claim = ROOT
			}
			bjarnland_area = {
				limit = {
					NOT = { is_core = ROOT }
					NOT = { owned_by = ROOT }
				}
				add_permanent_claim = ROOT
			}
			revrland_area = {
				limit = {
					NOT = { is_core = ROOT }
					NOT = { owned_by = ROOT }
				}
				add_permanent_claim = ROOT
			}
		}
	}
	
	gawed_control_the_frozen_pass = {
		icon = mission_seize_north_sea_trade
		required_missions = { gawed_construct_a_navy }
		position = 4
		
		provinces_to_highlight = {
			OR = {
				area = frostbridges_area
				area = bjarnland_area
				area = revrland_area
			}
			NOT = {
				country_or_non_sovereign_subject_holds = ROOT
			}
		}
		
		trigger = {
			frostbridges_area = {
				type = all
				country_or_non_sovereign_subject_holds = ROOT
			}
			bjarnland_area = {
				type = all
				country_or_non_sovereign_subject_holds = ROOT
			}
			revrland_area = {
				type = all
				country_or_non_sovereign_subject_holds = ROOT
			}
		}
			
		effect = {
			leifsborg_area = {
				limit = {
					NOT = { is_core = ROOT }
					NOT = { owned_by = ROOT }
				}
				add_permanent_claim = ROOT
			}
			fegras_area = {
				limit = {
					NOT = { is_core = ROOT }
					NOT = { owned_by = ROOT }
				}
				add_permanent_claim = ROOT
			}
			alptborg_area = {
				limit = {
					NOT = { is_core = ROOT }
					NOT = { owned_by = ROOT }
				}
				add_permanent_claim = ROOT
			}
			kaldrland_area = {
				limit = {
					NOT = { is_core = ROOT }
					NOT = { owned_by = ROOT }
				}
				add_permanent_claim = ROOT
			}
			sidaett_area = {
				limit = {
					NOT = { is_core = ROOT }
					NOT = { owned_by = ROOT }
				}
				add_permanent_claim = ROOT
			}
			ismark_area = {
				limit = {
					NOT = { is_core = ROOT }
					NOT = { owned_by = ROOT }
				}
				add_permanent_claim = ROOT
			}
		}
	}
	
	gawed_advance_up_the_valley = {
		icon = mission_advance_to_the_dnieper
		required_missions = { gawed_control_the_frozen_pass }
		position = 5
		
		provinces_to_highlight = {
			OR = {
				area = leifsborg_area
				area = fegras_area
				area = alptborg_area
				area = kaldrland_area
				area = sidaett_area
				area = ismark_area
			}
			NOT = {
				country_or_non_sovereign_subject_holds = ROOT
			}
		}
		
		trigger = {
			leifsborg_area = {
				type = all
				country_or_non_sovereign_subject_holds = ROOT
			}
			fegras_area = {
				type = all
				country_or_non_sovereign_subject_holds = ROOT
			}
			alptborg_area = {
				type = all
				country_or_non_sovereign_subject_holds = ROOT
			}
			kaldrland_area = {
				type = all
				country_or_non_sovereign_subject_holds = ROOT
			}
			sidaett_area = {
				type = all
				country_or_non_sovereign_subject_holds = ROOT
			}
			ismark_area = {
				type = all
				country_or_non_sovereign_subject_holds = ROOT
			}
		}
			
		effect = {
			elkaesals_slumber_area = {
				limit = {
					NOT = { is_core = ROOT }
					NOT = { owned_by = ROOT }
				}
				add_permanent_claim = ROOT
			}
			olavslund_area = {
				limit = {
					NOT = { is_core = ROOT }
					NOT = { owned_by = ROOT }
				}
				add_permanent_claim = ROOT
			}
			giants_manse_area = {
				limit = {
					NOT = { is_core = ROOT }
					NOT = { owned_by = ROOT }
				}
				add_permanent_claim = ROOT
			}
		}
	}
	
	gawed_the_gawedi_empire = {
		icon = mission_sweat_fealty
		required_missions = {  }
		position = 7
		
		provinces_to_highlight = {
			province_id = 221 #Gaweton
			NOT = {
				AND = {
					has_production_building_trigger = yes
					has_tax_building_trigger = yes
					development = 20
				}
			}
		}
		
		trigger = {
			if = {
				limit = { has_dlc = "Common Sense" }
				government_rank = 3
			}
			else = {
				total_development = 1000
			}
			treasury = 250
			221 = { #Gaweton
				owned_by = ROOT
				num_free_building_slots = 1
				has_production_building_trigger = yes
				has_tax_building_trigger = yes
				development = 20
			}
		}

		effect = {
			221 = { #Gaweton
				change_trade_goods = paper
				add_building_construction = {
					building = university
					speed = 1
					cost = 0.5
				}
			}
		}
	}
	
	gawed_expansion_of_gawedi_cities = {
		icon = imperial_capitals
		required_missions = {
			gawed_alen_glassworks
			gawed_the_gawedi_empire
			gawed_greatwood_fur
		}
		position = 9
		
		provinces_to_highlight = {
			province_group = alen_river_cities
			NOT = {
				AND = {
					has_manufactory_trigger = yes
					development = 20
				}
			}
		}
		
		trigger = {
			num_of_owned_provinces_with = {
				value = 25
				has_manufactory_trigger = yes
			}
			alen_river_cities = {
				type = all
				has_manufactory_trigger = yes
				development = 20
			}
		}

		effect = {
			add_country_modifier = {
				name = "proto_industrialization"
				duration = 7300 #20 years
			}
		}
	}
	
	gawed_the_black_river = {
		icon = industrialized_rhineland
		required_missions = { gawed_expansion_of_gawedi_cities }
		position = 10
		
		provinces_to_highlight = {
			OR = {
				province_id = 217 #Talonmount
				province_id = 337 #Alenath
				province_id = 222 #Vanbury
				province_id = 344 #Oudescker
			}
			NOT = {
				has_building = furnace
			}
		}
		
		trigger = {
			217 = { #Talonmount
				owned_by = ROOT
				has_building = furnace
			}
			337 = { #Alenath
				owned_by = ROOT
				has_building = furnace
			}
			222 = { #Vanbury
				owned_by = ROOT
				has_building = furnace
			}
			344 = { #Oudescker
				owned_by = ROOT
				has_building = furnace
			}
		}

		effect = {
			alen_river_cities = {
				add_base_tax = 1
				add_base_production = 1
			}
		}
	}
}

gawed_column_5 = {
	slot = 5
	generic = no
	ai = yes
	potential = {
		tag = A13
	}
	has_country_shield = yes
	
	gawed_build_the_bulwark = {
		icon = mission_conquer_50_development
		required_missions = { }
		position = 1
		
		provinces_to_highlight = {
			OR = {
				province_id = 228
				province_id = 242
				province_id = 343
			}
			NOT = {
				base_manpower = 3
			}
		}
		
		trigger = {
			228 = {
				owned_by = ROOT
				has_fort_building_trigger = yes
				base_manpower = 3
			}
			242 = {
				owned_by = ROOT
				base_manpower = 3
			}
			343 = {
				owned_by = ROOT
				has_fort_building_trigger = yes
				base_manpower = 3
			}
		}
			
		effect = {
			228 = {
				add_permanent_province_modifier = {
					name = bulwark_fortifications
					duration = -1
				}
			}
			242 = {
				add_permanent_province_modifier = {
					name = bulwark_fortifications
					duration = -1
				}
			}
			343 = {
				add_permanent_province_modifier = {
					name = bulwark_fortifications
					duration = -1
				}
			}
		}
	}
	
	gawed_revitalize_western_ports = {
		icon = mission_galleys_in_port
		required_missions = { gawed_integrate_westmoors }
		position = 2
		
		provinces_to_highlight = {
			OR = {
				province_id = 191 #Brontay Point
				province_id = 192 #Cottersea
				province_id = 193 #Leapdon
			}
			NOT = {
				AND = {
					has_trade_building_trigger = yes
					has_dock_building_trigger = yes
				}
			}
		}
		
		trigger = {
			191 = { #Brontay Point
				owned_by = ROOT
				has_trade_building_trigger = yes
				has_dock_building_trigger = yes
			}
			192 = { #Cottersea
				owned_by = ROOT
				has_dock_building_trigger = yes
			}
			193 = { #Leapdon
				owned_by = ROOT
				has_dock_building_trigger = yes
			}
		}

		effect = {
			191 = { #Brontay Point
				add_base_tax = 2
				add_base_production = 2
				add_base_manpower = 1
				center_of_trade = 1
			}
			192 = { #Cottersea
				add_base_tax = 1
				add_base_production = 2
				add_base_manpower = 1
			}
			193 = { #Leapdon
				add_base_tax = 1
				add_base_production = 2
				add_base_manpower = 1
			}
		}
	}

	gawed_rediscovery_of_aelantir = {
		icon = mission_sea_battles
		required_missions = { gawed_revitalize_western_ports }
		position = 3
		
		trigger = {
			custom_trigger_tooltip = {
				tooltip = aelantir_discovery.tooltip
				OR = {
					colonial_endralliande = {
						has_discovered = ROOT
					}
					colonial_dalaire = {
						has_discovered = ROOT
					}
				}
			}
		}

		effect = {
			add_country_modifier = {
				name = "lorent_rediscovery_of_aelantir"
				duration = 7300 #20 years
			}
		}
	}
	
	gawed_colonise_dalaire = {
		icon = mission_dominate_home_trade_node
		required_missions = { gawed_rediscovery_of_aelantir }
		position = 4
		
		provinces_to_highlight = {
			colonial_region = colonial_dalaire
			NOT = { country_or_non_sovereign_subject_holds = ROOT }
			has_discovered = yes
		}
		
		trigger = {
			num_of_provinces_owned_or_owned_by_non_sovereign_subjects_with = {
				value = 5
				colonial_region = colonial_dalaire
				is_city = yes
			}
		}
		
		effect = {
			add_country_modifier = {
				name = "colonial_enthusiasm"
				duration = 7300 #20 years
			}
		}
	}
	
	gawed_colonise_the_broken_sea = {
		icon = mission_protect_white_sea_trade
		required_missions = { gawed_colonise_dalaire }
		position = 5
		
		provinces_to_highlight = {
			colonial_region = colonial_broken_sea
			NOT = { country_or_non_sovereign_subject_holds = ROOT }
			has_discovered = yes
		}
		
		trigger = {
			num_of_provinces_owned_or_owned_by_non_sovereign_subjects_with = {
				value = 5
				colonial_region = colonial_broken_sea
				is_city = yes
			}
		}
		
		effect = {
			add_country_modifier = {
				name = "colonial_enthusiasm"
				duration = 7300 #20 years
			}
		}
	}
	
	gawed_expansion_into_ynn = {
		icon = mission_iberian_conquistador
		required_missions = { gawed_colonise_the_broken_sea }
		position = 6
		
		provinces_to_highlight = {
			colonial_region = colonial_ynn
			NOT = { country_or_non_sovereign_subject_holds = ROOT }
			has_discovered = yes
		}
		
		trigger = {
			num_of_provinces_owned_or_owned_by_non_sovereign_subjects_with = {
				value = 5
				colonial_region = colonial_ynn
				is_city = yes
			}
		}
		
		effect = {
			add_country_modifier = {
				name = "lorent_colonial_taxation"
				duration = 7300 #20 years
			}
		}
	}
	
	gawed_invest_in_rural_estates = {
		icon = mission_rice_field
		required_missions = {  }
		position = 7
		
		provinces_to_highlight = {
			OR = {
				AND = {
					OR = {
						area = alenic_expanse_area
						area = dragonhills_area
					}
					NOT = {
						has_production_building_trigger = yes
					}
				}
				AND = {
					OR = {
						province_id = 243 #Gerwick
						province_id = 213 #Eaglecrest
					}
					NOT = {
						development = 15
					}
				}
			}
		}
		
		trigger = {
			alenic_expanse_area = {
				type = all
				owned_by = ROOT
				has_production_building_trigger = yes
			}
			dragonhills_area = {
				type = all
				owned_by = ROOT
				has_production_building_trigger = yes
			}
			243 = { #Gerwick
				owned_by = ROOT
				development = 15
			}
			213 = { #Eaglecrest
				owned_by = ROOT
				development = 15
			}
		}

		effect = {
			alenic_expanse_area = {
				add_base_production = 1
			}
			dragonhills_area = {
				add_base_production = 1
			}
			213 = { #Eaglecrest
				change_trade_goods = cloth
			}
		}
	}
	
	gawed_greatwood_fur = {
		icon = mission_alone_in_the_wood
		required_missions = { gawed_invest_in_rural_estates }
		position = 8
		
		provinces_to_highlight = {
			OR = {
				AND = {
					OR = {
						area = alenvord_area
						area = balvord_area
						area = jonsway_area
					}
					trade_goods = fur
					NOT = {
						has_production_building_trigger = yes
					}
				}
				AND = {
					OR = {
						province_id = 223 #Drakesford
						province_id = 226 #Legion's Clearing
					}
					NOT = {
						has_production_building_trigger = yes
					}
				}
				AND = {
					province_id = 225 #Alenvord
					NOT = {
						has_trade_building_trigger = yes
					}
				}
			}
		}
		
		trigger = {
			treasury = 250
			custom_trigger_tooltip = {
				tooltip = gawed_greatwood_trigger_tooltip
				alenvord_area = {
					type = all
					owned_by = ROOT
					OR = {
						has_production_building_trigger = yes
						NOT = { trade_goods = fur }
					}
				}
				balvord_area = {
					type = all
					owned_by = ROOT
					OR = {
						has_production_building_trigger = yes
						NOT = { trade_goods = fur }
					}
				}
				jonsway_area = {
					type = all
					owned_by = ROOT
					OR = {
						has_production_building_trigger = yes
						NOT = { trade_goods = fur }
					}
				}
			}
			223 = { #Drakesford
				owned_by = ROOT
				has_production_building_trigger = yes
			}
			226 = { #Legion's Clearing
				owned_by = ROOT
				has_production_building_trigger = yes
			}
			225 = { #Alenvord
				owned_by = ROOT
				num_free_building_slots = 1
				has_trade_building_trigger = yes
				
			}
		}

		effect = {
			custom_tooltip = gawed_greatwood_effect_tooltip
			hidden_effect = {
				alenvord_area = {
					limit = {
						trade_goods = fur
					}
					add_base_production = 1
				}
				balvord_area = {
					limit = {
						trade_goods = fur
					}
					add_base_production = 1
				}
				jonsway_area = {
					limit = {
						trade_goods = fur
					}
					add_base_production = 1
				}
			}
			223 = { #Drakesford
				if = {
					limit = {
						trade_goods = fur
					}
					add_base_production = 1
				}
				change_trade_goods = cloth
			}
			225 = { #Alenvord
				add_building_construction = {
					building = tradecompany
					speed = 1
					cost = 0.5
				}
			}
		}
	}
}
