
edict_defensive_edict = {
	potential = {
		always = yes		#we support "potential" if modders want to have lots and just show some.
	}
	
	allow = {
		always = yes
	}
	
	modifier = {
		local_defensiveness = 0.33
	}
	
	color = {  46 114 55  }
	
	
	ai_will_do = {
		factor = 0
	}
}