
edict_feudal_de_jure_law = {
	potential = {
		current_age = age_of_discovery
	}
	
	allow = {
		custom_trigger_tooltip = {
			tooltip = edict_feudal_de_jure_law_tooltip
			has_country_flag = feudal_de_jure_law
		}
		current_age = age_of_discovery
	}
	
	modifier = { # OBS: Modify AI accordingly if this is changed
		local_unrest = -5
	}
	
	color = {  116 198 240  }
	
	
	ai_will_do = {
		factor = 100
		modifier = {
			factor = 0
			OR = {
				AND = {
					NOT = {
						has_state_edict = edict_feudal_de_jure_law
					}
					all_province_in_state = {
						NOT = { unrest = 1 }
					}
				}
				AND = {
					has_state_edict = edict_feudal_de_jure_law
					
					all_province_in_state = {
						NOT = { unrest = 1 }
					}
				}
			}
		}
		modifier = {
			factor = 5
			
			AND = {
				NOT = {
					has_state_edict = edict_feudal_de_jure_law
				}
				all_province_in_state = {
					unrest = 1
					NOT = { unrest = 5 }
				}
			}
		}
		modifier = {
			factor = 3
			AND = {
				NOT = {
					has_state_edict = edict_feudal_de_jure_law
				}
				all_province_in_state = {
					unrest = 1
				}
			}
		}
		modifier = {
			factor = 5
			OR = {
				AND = {
					NOT = {
						has_state_edict = edict_feudal_de_jure_law
					}
					any_province_in_state = {
						unrest = 1
						NOT = { unrest = 5 }
					}
				}
				
				has_state_edict = edict_feudal_de_jure_law
			}
		}
	}
	
}