country_decisions = {

	bim_lau_nation = {
		major = yes
		potential = {
			OR = {
				primary_culture = ranilau
				primary_culture = biengdi
				primary_culture = risbeko
				primary_culture = chengrong
				primary_culture = teplin
			}
			NOT = { exists = Y51 }
			
			NOT = { has_country_flag = formed_bim_lau_flag }
			OR = {
				ai = no
				is_playing_custom_nation = no
			}
			NOT = { tag = Y51 }	#Bim Lau
			is_colonial_nation = no
			OR = {
				is_former_colonial_nation = no
				AND = {
					is_former_colonial_nation = yes
					ai = no
				}
			}
			normal_or_historical_nations = yes
			was_never_end_game_tag_trigger = yes
		}
		provinces_to_highlight = {
			OR = {
				province_id = 4565 # Bim Lau
				province_id = 4594 # Telesraa
				province_id = 4560 # Bieng Phang
				province_id = 4563 # Senuutphro
				province_id = 4593 # Taiver
			}
			OR = {
				NOT = { owned_by = ROOT }
				NOT = { is_core = ROOT }
			}
		}
		allow = {
			is_at_war = no
			is_free_or_tributary_trigger = yes
			is_nomad = no			
			NOT = { exists = Y51 }
			owns_core_province = 4565 # Bim Lau
			owns_core_province = 4594 # Telesraa
			owns_core_province = 4560 # Bieng Phang
			owns_core_province = 4563 # Senuutphro
			owns_core_province = 4593 # Taiver
		}
		effect = {
			4565 = { # Bim Lau
				move_capital_effect = yes
			}
			change_tag = Y51
			hidden_effect = { restore_country_name = yes }
			swap_non_generic_missions = yes
			change_primary_culture = ranilau
			bim_lau_area = {
				limit = {
					NOT = { owned_by = ROOT }
					NOT = { is_core = ROOT }
					NOT = { is_permanent_claim = ROOT }
				}
				add_permanent_claim = Y51
			}
			reanthung_area = {
				limit = {
					NOT = { owned_by = ROOT }
					NOT = { is_core = ROOT }
					NOT = { is_permanent_claim = ROOT }
				}
				add_permanent_claim = Y51
			}
			li_btei_area = {
				limit = {
					NOT = { owned_by = ROOT }
					NOT = { is_core = ROOT }
					NOT = { is_permanent_claim = ROOT }
				}
				add_permanent_claim = Y51
			}
			middle_telebei_area = {
				limit = {
					NOT = { owned_by = ROOT }
					NOT = { is_core = ROOT }
					NOT = { is_permanent_claim = ROOT }
				}
				add_permanent_claim = Y51
			}
			lower_telebei_area = {
				limit = {
					NOT = { owned_by = ROOT }
					NOT = { is_core = ROOT }
					NOT = { is_permanent_claim = ROOT }
				}
				add_permanent_claim = Y51
			}
			add_country_modifier = {
				name = "centralization_modifier"
				duration = 7300
			}
			add_prestige = 25
			if = {
				limit = {
					has_custom_ideas = no
				}
				country_event = { id = ideagroups.1 } #Swap Ideas
			}
			set_country_flag = formed_bim_lau_flag
			
			hidden_effect = {
				if = {
					limit = {
						4565 = { has_province_modifier = Y51_necropolis_repairs }
					}
					complete_mission = Y51_spirits_return
					complete_mission = Y51_restore_necropolis
				}
				if = {
					limit = {
						4565 = { has_province_modifier = Y51_necropolis_1 }
					}
					complete_mission = Y51_spirits_return
					complete_mission = Y51_restore_necropolis
					complete_mission = Y51_restore_bim_lau_living_part
					complete_mission = Y51_secure_food_production
					complete_mission = Y51_expand_logging_industry
					complete_mission = Y51_jungle_mining
					complete_mission = Y51_prospecting_damestear
					complete_mission = Y51_finish_repairs
				}
				if = {
					limit = {
						4565 = { has_province_modifier = Y51_necropolis_2 }
					}
					complete_mission = Y51_spirits_return
					complete_mission = Y51_restore_necropolis
					complete_mission = Y51_restore_bim_lau_living_part
					complete_mission = Y51_secure_food_production
					complete_mission = Y51_expand_logging_industry
					complete_mission = Y51_jungle_mining
					complete_mission = Y51_prospecting_damestear
					complete_mission = Y51_finish_repairs
					complete_mission = Y51_restore_ket_btei
					complete_mission = Y51_entombment_tradition
					complete_mission = Y51_strengthen_wards
				}
				if = {
					limit = {
						4565 = { has_province_modifier = Y51_necropolis_3 }
					}
					complete_mission = Y51_spirits_return
					complete_mission = Y51_restore_necropolis
					complete_mission = Y51_restore_bim_lau_living_part
					complete_mission = Y51_secure_food_production
					complete_mission = Y51_expand_logging_industry
					complete_mission = Y51_jungle_mining
					complete_mission = Y51_prospecting_damestear
					complete_mission = Y51_finish_repairs
					complete_mission = Y51_restore_ket_btei
					complete_mission = Y51_entombment_tradition
					complete_mission = Y51_strengthen_wards
					complete_mission = Y51_precursor_magic
					complete_mission = Y51_surpass_ancestors
				}
			}
		}
		ai_will_do = {
			factor = 1
		}
	}
	
}