country_decisions = {
	overclan_nation = {
		major = yes
		potential = {
			primary_culture = exodus_goblin
			NOT = { has_country_flag = formed_overclan_flag }
			NOT = { exists = F78 }
			OR = {
				is_former_colonial_nation = no
				AND = {
					is_former_colonial_nation = yes
					ai = no
				}
			}
			is_colonial_nation = no
			normal_or_historical_nations = yes
		}
		provinces_to_highlight = {
			OR = {
				province_id = 538 #Azka-Evran
				province_id = 522 #Azka-Szel-Azka
				province_id = 510 #Bal Ourd
				province_id = 536 #Aqatbar
				province_id = 516 #West End
				province_id = 521 #Reuyel
			}
			NOT = { owned_by = ROOT }
		}
		allow = {
			custom_trigger_tooltip = {
				tooltip = semi_or_non_monstrous_tt
				OR = {
					has_country_flag = semi_monstrous
					has_country_flag = no_longer_monstrous
					NOT = { has_country_modifier = monstrous_nation }
				}
			}
			is_free_or_tributary_trigger = yes
			is_at_war = no
			num_of_owned_provinces_with = {
				value = 25
				OR = { 	
					region = ourdia_region
					region = bahar_region
					region = harpy_hills_region
				}
			}
			OR = { 
				medium_tolerance_human_race_trigger = yes
				high_tolerance_human_race_trigger = yes
			}
			OR = { 
				medium_tolerance_elven_race_trigger = yes
				high_tolerance_elven_race_trigger = yes
			}
			OR = { 
				OR = { 
					medium_tolerance_dwarven_race_trigger = yes
					high_tolerance_dwarven_race_trigger = yes
				}
				OR = { 
					medium_tolerance_harpy_race_trigger = yes
					high_tolerance_harpy_race_trigger = yes
				}
			}
			OR = { 
				owns_core_province = 536 #Aqatbar
				owns_core_province = 516 #West End
				owns_core_province = 521 #Reuyel
			}
			OR = {
				owns_core_province = 538 #Azka-Evran
				owns_core_province = 522 #Azka-Szel-Azka
				owns_core_province = 510 #Bal Ourd
			}
			NOT = { government = tribal }
		}
		effect = {
			change_tag = F78
			hidden_effect = { restore_country_name = yes }
			#swap_non_generic_missions = yes
			remove_non_electors_emperors_from_empire_effect = yes
			if = {
				limit = { government_rank = 1 }
				set_government_rank = 2
			}
			bahar_region = {
				limit = { NOT = { owned_by = ROOT } }
				add_permanent_claim = F78
			}
			ourdia_region = {
				limit = { NOT = { owned_by = ROOT } }
				add_permanent_claim = F78
			}
			ur_monkande_area = {
				limit = { NOT = { owned_by = ROOT } }
				add_permanent_claim = F78
			}
			alyzksaan_area = {
				limit = { NOT = { owned_by = ROOT } }
				add_permanent_claim = F78
			}
			kuz_mountains_area = {
				limit = { NOT = { owned_by = ROOT } }
				add_permanent_claim = F78
			}
			imuluses_area = {
				limit = { NOT = { owned_by = ROOT } }
				add_permanent_claim = F78
			}
			add_prestige = 25
			if = {
				limit = { has_custom_ideas = no }
				country_event = { id = ideagroups.1 } #Swap Ideas
			}
			add_country_modifier = {
				name = "centralization_modifier"
				duration = 7300
			}
			set_country_flag = formed_overclan_flag
			country_event = { id = flavour_overclan.1 } #name change
		}
		ai_will_do = {
			factor = 100
		}
		ai_importance = 400
	}
}