namespace = aw_bandits

#The Adventurers Wanted uses a strict ID system to make the system easier to author content for
#The IDs below 100 are core utility systems that are usually straight copies or modifications of how the AW system works, such as monsters being able to migrate and be defeated by adventurers.
#The IDs above 100 are more unique situations for the specific encounter, but they should correlate with the numbers from above: if ID 10s deal with migration, then ID 110s should be the unique events to do with migration - for example bribing a Thieves Guild to GTFO your country
#Crazy and more uniques ones that dont conform to the utilities should be ID 200

#USE THE anb_aw_bandits TO SEE A SIMPLE COPY-PASTABLE FORMAT IN ADDITION TO STUFF LIKE MIGRATION STYLES ETC
#Search for CHANGEABLE for the criteria you should change in that file and this one

#################################################################
# Welcome to the master file for the Adventurers Wanted System. In the comments below you'll see copy-pastable events for you to choose, different migration styles as well as prebuilt events to handle stuff like spawning rebellions
#################################################################

#0 - spawn in province
province_event = {
    id = aw_bandits.0
    title = aw_bandits.0.t
    desc = aw_bandits.0.d
    picture = COMET_SIGHTED_eventPicture
    goto = ROOT
    
    is_triggered_only = yes
    #hidden = yes
    
    option = {  
        name = aw_basic.0.a
        ai_chance = { 
            factor = 20 
        }
        add_permanent_province_modifier = {
            name = aw_bandits_1
            duration = -1  
        }

        custom_tooltip = aw_how_to_get_more_adventurer_removal_chance_tooltip
    }
}


#1 - event manager, called by on_actions. This happens ONCE per pulse. If you have 7 of these, it still only fires the manager once
country_event = {
    id = aw_bandits.1
    title = aw_bandits.1.t
    desc = aw_bandits.1.d
    picture = COMET_SIGHTED_eventPicture
    
    hidden = yes
    is_triggered_only = yes
    

    trigger = {
    }

    immediate = {
        random_owned_province = {
            limit = {
                OR = { 
                    has_province_modifier = aw_bandits_1
                    has_province_modifier = aw_bandits_2
                    has_province_modifier = aw_bandits_3
                }
            }
            save_event_target_as = aw_target
        }
    }
    
	
	option = {
        event_target:aw_target = {
            random_list = {
				1 = { 
                    #Specific modifiers

                    #want to migrate from devastated provinces
                    modifier = {
                        factor = 2
                        devastation = 75
                    }
					province_event = { id = aw_bandits.10 }
				}
                1 = {
                    province_event = { id = aw_bandits.13 }
                }
                1 = {
                    #Base modifiers

                    #more likely if generous quest rewards/adverturer nation
                    modifier = {
                        factor = 2
                        OR = {
                            owner = { has_estate_privilege = estate_adventurers_generous_quest_rewards }
                            owner = { has_adventurer_reform = yes }
                        }
                    }

                    #more likely if loyal
                    modifier = {
                        factor = 2
                        owner = {
                            estate_loyalty = {
                                estate = estate_adventurers
                                loyalty = 60
                            }
                        }
                    }

                    #more likely if high influence
                    modifier = {
                        factor = 2
                        owner = {
                            estate_influence = {
                                estate = estate_adventurers
                                influence = 60
                            }
                        }
                    }
                    province_event = { id = aw_bandits.21 }
                }
                2 = {
                    province_event = { id = aw_bandits.22 }
                }
                2 = {
                    #Base modifiers

                    #more likely if generous quest rewards/adverturer nation
                    modifier = {
                        factor = 2
                        OR = {
                            owner = { has_estate_privilege = estate_adventurers_generous_quest_rewards }
                            owner = { has_adventurer_reform = yes }
                        }
                    }

                    #more likely if loyal
                    modifier = {
                        factor = 2
                        owner = {
                            estate_loyalty = {
                                estate = estate_adventurers
                                loyalty = 60
                            }
                        }
                    }

                    #more likely if high influence
                    modifier = {
                        factor = 2
                        owner = {
                            estate_influence = {
                                estate = estate_adventurers
                                influence = 60
                            }
                        }
                    }
                    province_event = { id = aw_bandits.23 }
                }
                2 = {
                    modifier = {
                        factor = 2
                        devastation = 25    #represents bandits looting
                        NOT = { devastation = 75 }
                    }
                    province_event = { id = aw_bandits.30 }
                }

                1 = {
                    province_event = { id = aw_bandits.120 }
                }
                1 = {
                    #Specific modifiers
                    modifier = {
                        factor = 2
                        owner = { war_exhaustion = 10 }
                    }
                    province_event = { id = aw_bandits.130 }
                }
                1 = {
                    province_event = { id = aw_bandits.200 }
                }
                1 = {
                    province_event = { id = aw_bandits.201 }
                }
                1 = {
                    province_event = { id = aw_bandits.202 }
                }
                1 = {
                    province_event = { id = aw_bandits.203 }
                }
                1 = {
                    #Specific modifiers
                    modifier = {
                        factor = 2 
                        NOT = { owner = { stability = 1 } }
                    }
                    modifier = {
                        factor = 3
                        owner = { corruption = 1 }  #if yer a king john type
                    }
                    province_event = { id = aw_bandits.204 }
                }
                1 = {
                    #Specific modifiers
                    modifier = {
                        factor = 4  #so this will fire if the chosen province has a fort
                        has_fort_building_trigger = yes
                    }
                    province_event = { id = aw_bandits.205 }
                }
                1 = {
                    province_event = { id = aw_bandits.206 }
                }
            }
        }
	}
    
}

############## 10s - Migration and Propagation ###################

#10 - Base migration - any adjacent
province_event = {
    id = aw_bandits.10
    title = aw_bandits.10.t
    desc = aw_bandits.10.d
    picture = COMET_SIGHTED_eventPicture
    goto = ROOT
    
    hidden = no
    is_triggered_only = yes
    
    trigger = {
        OR = {
            has_province_modifier = aw_bandits_1
            has_province_modifier = aw_bandits_2
        }
    }
    
    immediate = {
        hidden_effect = {

            #CHANGEABLE - MIGRATION TYPE - Any adjacent province
            random_neighbor_province = {
                limit = {
                    #Base Conditions
                    is_city = yes

                    NOT = { has_province_modifier = aw_bandits_1 }
                    NOT = { has_province_modifier = aw_bandits_2 }
                    NOT = { has_province_modifier = aw_bandits_3 }


                    #Specific Conditions
                   
                }
                save_event_target_as = aw_migration_target
            }
        }
    }

    #If migration is within country
    option = {  
        name = aw_bandits.10.a
        ai_chance = { factor = 100 }
        goto = aw_migration_target
        trigger = {
            event_target:aw_migration_target = {
                 owned_by = ROOT
            }
        }

        #It's migration, so remove modifier from previous province
        tooltip = { #this is fake. the real one happens below
            remove_province_modifier = aw_bandits_1
            remove_province_modifier = aw_bandits_2
            remove_province_modifier = aw_bandits_3
        }

        event_target:aw_migration_target = {
            if = {
                limit = {
                    owned_by = ROOT
                }

                #real removal. the other real one is in the called event in the else
                remove_province_modifier = aw_bandits_1
                remove_province_modifier = aw_bandits_2
                remove_province_modifier = aw_bandits_3


                #CHANGEABLE - SPREAD TYPE: Tier makes Tier of the same at target
                if = {
                    limit = {
                        FROM = { has_province_modifier = aw_bandits_1 }
                    }
                    add_permanent_province_modifier = { 
                        name = aw_bandits_1
                        duration = -1
                    }
                }
                else_if = {
                    limit = {
                        FROM = { has_province_modifier = aw_bandits_2 }
                    }
                    add_permanent_province_modifier = { 
                        name = aw_bandits_2
                        duration = -1
                    }
                }
                else_if = {
                    limit = {
                        FROM = { has_province_modifier = aw_bandits_3 }
                    }
                    add_permanent_province_modifier = { 
                        name = aw_bandits_3
                        duration = -1
                    }
                }
            }
        }
    }

    #If migration is sent to OTHER country
    option = {  
        name = aw_bandits.10.b
        ai_chance = { factor = 100 }
        goto = aw_migration_target
        trigger = {
            event_target:aw_migration_target = {
                NOT = { owned_by = ROOT }   #if the target isnt in your country, then send an event to them that notifies + adds it on their end
            }
        }

        #It's migration, so remove modifier from previous province
        tooltip = { #this is fake. the real one happens via the event
            remove_province_modifier = aw_bandits_1
            remove_province_modifier = aw_bandits_2
            remove_province_modifier = aw_bandits_3
        }

        event_target:aw_migration_target = {
            province_event = {
                id = aw_bandits.11
                days = 14
                #random = 31
            }
        }
    }
}

#11 - migration target notification if it goes to other country
province_event = {
    id = aw_bandits.11
    title = aw_bandits.11.t
    desc = aw_bandits.11.d
    picture = COMET_SIGHTED_eventPicture
    goto = ROOT
    
    hidden = no
    is_triggered_only = yes
    
    option = {
        # deal with it ourselves
        name = aw_basic.0.a
        ai_chance = { 
            factor = 20 
        }
        custom_tooltip = aw_how_to_get_more_adventurer_removal_chance_tooltip

        owner = {
            add_opinion = {
                who = FROM
                modifier = aw_crossed_border
            }
        }

        #CHANGEABLE - SPREAD TYPE: Tier makes Tier of the same at target (NOTE: THIS USUALLY SHOULD BE THE SAME AS id.10 above)
        if = {
            limit = {
                FROM = { has_province_modifier = aw_bandits_1 }
            }
            add_permanent_province_modifier = { 
                name = aw_bandits_1
                duration = -1
            }
        }
        else_if = {
            limit = {
                FROM = { has_province_modifier = aw_bandits_2 }
            }
            add_permanent_province_modifier = { 
                name = aw_bandits_2
                duration = -1
            }
        }
        else_if = {
            limit = {
                FROM = { has_province_modifier = aw_bandits_3 }
            }
            add_permanent_province_modifier = { 
                name = aw_bandits_3
                duration = -1
            }
        }

    }

    after = {
        FROM = {    #cleanup event to remove the modifiers from the original province
            remove_province_modifier = aw_bandits_1
            remove_province_modifier = aw_bandits_2
            remove_province_modifier = aw_bandits_3
        }
    }
}

#13 - Base propagation - only bandit kings. creates level 1 bandit in adjacent prov
province_event = {
    id = aw_bandits.13
    title = aw_bandits.13.t
    desc = aw_bandits.13.d
    picture = COMET_SIGHTED_eventPicture
    goto = ROOT
    
    hidden = no
    is_triggered_only = yes
    
    trigger = {
        has_province_modifier = aw_bandits_3

        any_neighbor_province = {
            NOT = { has_province_modifier = aw_bandits_1 }
            NOT = { has_province_modifier = aw_bandits_2 }
            NOT = { has_province_modifier = aw_bandits_3 }
        }
    }
    
    immediate = {
        hidden_effect = {

            #CHANGEABLE - MIGRATION TYPE - Any adjacent province. doesnt matter who owns
            random_neighbor_province = {
                limit = {
                    #Base Conditions
                    is_city = yes

                    NOT = { has_province_modifier = aw_bandits_1 }
                    NOT = { has_province_modifier = aw_bandits_2 }
                    NOT = { has_province_modifier = aw_bandits_3 }


                    #Specific Conditions
                   
                }
                save_event_target_as = aw_migration_target
            }
        }
    }

    #If migration is within country
    option = { 
        name = aw_bandits.13.a
        ai_chance = { factor = 100 }
        goto = aw_migration_target
        trigger = {
            event_target:aw_migration_target = {
                owned_by = ROOT
            }
        }


        event_target:aw_migration_target = {
            if = {
                limit = {
                    owned_by = ROOT
                }
                
                #CHANGEABLE - SPREAD TYPE: Makes Tier 1
                add_permanent_province_modifier = { 
                    name = aw_bandits_1
                    duration = -1
                }
            }
        }
    }

    #If migration is sent to OTHER country
    option = {  
        name = aw_basic.13.b
        ai_chance = { factor = 100 }
        goto = aw_migration_target
        trigger = {
            event_target:aw_migration_target = {
                NOT = { owned_by = ROOT }   #if the target isnt in your country, then send an event to them that notifies + adds it on their end
            }
        }

        event_target:aw_migration_target = {
            province_event = {
                id = aw_bandits.14
                days = 14
                #random = 31
            }
        }
    }
}

#14 - propagation target notification
province_event = {
    id = aw_bandits.14
    title = aw_bandits.14.t
    desc = aw_bandits.14.d
    picture = COMET_SIGHTED_eventPicture
    goto = ROOT
    
    hidden = no
    is_triggered_only = yes
    

    option = {
        name = aw_basic.0.a
        ai_chance = { 
            factor = 20 
        }

        owner = {
            add_opinion = {
                who = FROM
                modifier = aw_crossed_border
            }
        }

        #CHANGEABLE - SPREAD TYPE: Makes Tier 1
        add_permanent_province_modifier = { 
            name = aw_bandits_1
            duration = -1
        }

        custom_tooltip = aw_how_to_get_more_adventurer_removal_chance_tooltip
    }
}

############## 20s - Removal/Tier Down ###################

#20 - natural removal - nah

#21 - adventurer removal
province_event = {
    id = aw_bandits.21
    title = aw_bandits.21.t
    desc = aw_bandits.21.d
    picture = COMET_SIGHTED_eventPicture
    goto = ROOT
    
    hidden = no
    is_triggered_only = yes
    
    trigger = {
        owner = { has_estate = estate_adventurers }
        OR = {
            has_province_modifier = aw_bandits_1
            has_province_modifier = aw_bandits_2
            has_province_modifier = aw_bandits_3
        }
    }
    
    option = {
        # oh, thank goodness
        name = aw_bandits.21.a
        ai_chance = { factor = 100 }

        remove_province_modifier = aw_bandits_1
        remove_province_modifier = aw_bandits_2
        remove_province_modifier = aw_bandits_3

        owner = {
            add_estate_influence_modifier = {
                estate = estate_adventurers
                desc = successful_adventure
                duration = 3650
                influence = 5
            }
        }

    }
}

#22 - natural tier down
province_event = {
    id = aw_bandits.22
    title = aw_bandits.22.t
    desc = aw_bandits.22.d
    picture = COMET_SIGHTED_eventPicture
    goto = ROOT
    
    hidden = no
    is_triggered_only = yes
    
    trigger = {
        OR = { 
            has_province_modifier = aw_bandits_1 
            has_province_modifier = aw_bandits_2
            has_province_modifier = aw_bandits_3
        }
    }
    option = {
        name = aw_bandits.22.a
        ai_chance = { factor = 100 }
        if = {
            limit = { 
                has_province_modifier = aw_bandits_3 
            }
            remove_province_modifier = aw_bandits_3
            add_permanent_province_modifier  = {
                name = aw_bandits_2
                duration = -1  
            }
        }
        else_if = {
            limit = { 
                has_province_modifier = aw_bandits_2
            }
            remove_province_modifier = aw_bandits_2
            add_permanent_province_modifier  = {
                name = aw_bandits_1
                duration = -1  
            }
        }
        else_if = {
            limit = { 
                has_province_modifier = aw_bandits_1
            }
            remove_province_modifier = aw_bandits_1
        }
    }
}

#23 - adventurer tier down
province_event = {
    id = aw_bandits.23
    title = aw_bandits.23.t
    desc = aw_bandits.23.d
    picture = COMET_SIGHTED_eventPicture
    goto = ROOT
    
    hidden = no
    is_triggered_only = yes
    
    trigger = {
        owner = { has_estate = estate_adventurers }
        OR = { 
            has_province_modifier = aw_bandits_1 
            has_province_modifier = aw_bandits_2
            has_province_modifier = aw_bandits_3
        }
    }
    option = {
        name = aw_bandits.23.a
        ai_chance = { factor = 100 }
        if = {
            limit = { 
                has_province_modifier = aw_bandits_3 
            }
            remove_province_modifier = aw_bandits_3
            add_permanent_province_modifier  = {
                name = aw_bandits_2
                duration = -1  
            }
        }
        else_if = {
            limit = { 
                has_province_modifier = aw_bandits_2
            }
            remove_province_modifier = aw_bandits_2
            add_permanent_province_modifier  = {
                name = aw_bandits_1
                duration = -1  
            }
        }
        else_if = {
            limit = { 
                has_province_modifier = aw_bandits_1
            }
            remove_province_modifier = aw_bandits_1
        }

        owner = {
            add_estate_influence_modifier = {
                estate = estate_adventurers
                desc = successful_adventure
                duration = 3650
                influence = 5
            }
        }
    }
}

############## 30s - Tier Up ###################

#30 - natural tier up
province_event = {
    id = aw_bandits.30
    title = aw_bandits.30.t
    desc = aw_bandits.30.d
    picture = COMET_SIGHTED_eventPicture
    goto = ROOT
    
    hidden = no
    is_triggered_only = yes
    
    trigger = {
        OR = { 
            has_province_modifier = aw_bandits_1 
            has_province_modifier = aw_bandits_2
        }
    }
    option = {
        name = aw_bandits.30.a
        ai_chance = { factor = 100 }

        add_devastation = 10

        if = {
            limit = { 
                has_province_modifier = aw_bandits_1
            }
            remove_province_modifier = aw_bandits_1
            add_permanent_province_modifier  = {
                name = aw_bandits_2
                duration = -1  
            }
        }
        else_if = {
            limit = { 
                has_province_modifier = aw_bandits_2
            }
            remove_province_modifier = aw_bandits_2
            add_permanent_province_modifier  = {
                name = aw_bandits_3
                duration = -1  
            }
        }

        custom_tooltip = aw_how_to_get_more_adventurer_removal_chance_tooltip   #should be added for each increase of level
    }
}

############## 110s - Special Migration & Propagation ###################


############## 120s - Special Removal/Tier Down ###################

#120 - pay bandits to disband
province_event = {
    id = aw_bandits.120
    title = aw_bandits.120.t
    desc = aw_bandits.120.d
    picture = COMET_SIGHTED_eventPicture
    goto = ROOT
    
    hidden = no
    is_triggered_only = yes
    
    trigger = {
        OR = {
            has_province_modifier = aw_bandits_1
            has_province_modifier = aw_bandits_2
            has_province_modifier = aw_bandits_3 
        }
    }
    
    #pay em
    option = {
 
        name = aw_bandits.120.a
        ai_chance = { 
            factor = 100 
            modifier = {
                factor = 0
                NOT = { owner = { years_of_income = 1 } }
            }
        }

        if = {
            limit = {
                has_province_modifier = aw_bandits_1
            }
            owner = { add_years_of_income = -0.1 }
        }
        else_if = {
            limit = {
                has_province_modifier = aw_bandits_2
            }
            owner = { add_years_of_income = -0.2 }
        }
        else_if = {
            limit = {
                has_province_modifier = aw_bandits_3
            }
            owner = { add_years_of_income = -0.3 }
        }

        remove_province_modifier = aw_bandits_1
        remove_province_modifier = aw_bandits_2
        remove_province_modifier = aw_bandits_3

    }

    #nah
    option = {
 
        name = aw_bandits.120.b
        ai_chance = { factor = 100 }

        owner = { add_prestige = 5 }

    }
}




############## 130s - Special Tier Up ###################

#130 - deserting soldiers spawn new bandits
province_event = {
    id = aw_bandits.130
    title = aw_bandits.130.t
    desc = aw_bandits.130.d
    picture = COMET_SIGHTED_eventPicture
    goto = ROOT
    
    hidden = no
    is_triggered_only = yes
    
    trigger = {
        OR = {
            owner = { had_recent_war = 10 }
            owner = { is_at_war = yes }
        }
    }
    
    #spawn em
    option = {
        name = aw_bandits.130.a
        ai_chance = { 
            factor = 100 
        }

        add_permanent_province_modifier  = {
            name = aw_bandits_1
            duration = -1  
        }

        owner = { add_yearly_manpower = -0.25 }
    }

    #try and keep them in the army with generous benefits
    option = {
        name = aw_bandits.130.b
        ai_chance = { 
            factor = 100 
        }

        owner = { add_years_of_income = -0.25 }
    }

    #GET BACK IN LINE YE MAGGOTS! - strict personality
    option = {
        name = aw_bandits.130.c
        ai_chance = { factor = 1000 }
		trigger = {
			owner = { ruler_has_personality = strict_personality }
		}
        highlight = yes

        owner = { add_mil_power = -50 }

        owner = { add_yearly_manpower = 0.25 }

    }

}



############## 200s - Special Flavour ###################

#200 - bandit robs tax collectors
province_event = {
    id = aw_bandits.200
    title = aw_bandits.200.t
    desc = aw_bandits.200.d
    picture = COMET_SIGHTED_eventPicture
    goto = ROOT
    
    hidden = no
    is_triggered_only = yes
    
    trigger = {
        OR = {
            has_province_modifier = aw_bandits_1
            has_province_modifier = aw_bandits_2
            has_province_modifier = aw_bandits_3 
        }
    }
    
    #damn
    option = {
        name = aw_bandits.200.a
        ai_chance = { 
            factor = 100 
        }

        add_permanent_province_modifier  = {
            name = aw_bandits_tax_collectors_robbed
            duration = 3650  
        }

        if = {
            limit = { 
                has_province_modifier = aw_bandits_1
            }
            remove_province_modifier = aw_bandits_1
            add_permanent_province_modifier  = {
                name = aw_bandits_2
                duration = -1  
            }

            custom_tooltip = aw_how_to_get_more_adventurer_removal_chance_tooltip   #should be added for each increase of level
        }
        else_if = {
            limit = { 
                has_province_modifier = aw_bandits_2
            }
            remove_province_modifier = aw_bandits_2
            add_permanent_province_modifier  = {
                name = aw_bandits_3
                duration = -1  
            }

            custom_tooltip = aw_how_to_get_more_adventurer_removal_chance_tooltip   #should be added for each increase of level
        }
    }

}

#201 - bandits raze settlement. level 2+ only
province_event = {
    id = aw_bandits.201
    title = aw_bandits.201.t
    desc = aw_bandits.201.d
    picture = COMET_SIGHTED_eventPicture
    goto = ROOT
    
    hidden = no
    is_triggered_only = yes
    
    trigger = {
        OR = {
            has_province_modifier = aw_bandits_2
            has_province_modifier = aw_bandits_3 
        }

        development = 6
    }
    
    option = {
        name = aw_bandits.201.a
        ai_chance = { 
            factor = 100 
        }

        add_devastation = 33

        random_list = {
            30 = {
                add_base_tax = -1
            }
            30 = {
                add_base_production = -1
            }
        }
    }
}

#202 - provoke bandit, make army
province_event = {
    id = aw_bandits.202
    title = aw_bandits.202.t
    desc = aw_bandits.202.d
    picture = COMET_SIGHTED_eventPicture
    goto = ROOT
    
    hidden = no
    is_triggered_only = yes

    trigger = {
        OR = {
            has_province_modifier = aw_bandits_2
            has_province_modifier = aw_bandits_3 
        }
    }
        
    option = {
        # provoke them!
        name = aw_bandits.146.a
        ai_chance = { factor = 50 }

        add_devastation = 100

        if = {
            limit = {
                has_province_modifier = aw_bandits_2
            }
            spawn_rebels = {
                type = aw_bandits_rebels
                size = 1
            }
        }
        else_if = {
            limit = {
                has_province_modifier = aw_bandits_3
            }
            spawn_rebels = {
                type = aw_bandits_rebels
                size = 2
            }
        }

        remove_province_modifier = aw_bandits_1
        remove_province_modifier = aw_bandits_2
        remove_province_modifier = aw_bandits_3
    }

    option = {
        # a terrible idea
        name = aw_bandits.146.b
        ai_chance = { factor = 50 }

        add_mil_power = 5
    }

}

#203 - Bandit king fucks provs in owned area up
province_event = {
    id = aw_bandits.203
    title = aw_bandits.203.t
    desc = aw_bandits.203.d
    picture = COMET_SIGHTED_eventPicture
    goto = ROOT
    
    hidden = no
    is_triggered_only = yes
    
    trigger = {
        OR = {
            has_province_modifier = aw_bandits_3 
        }

        area_for_scope_province = {
            owned_by = FROM
            NOT = { province_id = ROOT }
        }

    }
    
    option = {
        name = aw_bandits.203.a
        ai_chance = { 
            factor = 100 
        }

        area = { 
            limit = {
                owned_by = ROOT
            }
            add_devastation = 50

            random_list = {
                10 = {
                    add_base_tax = -1
                }
                10 = {
                    add_base_production = -1
                }
                80 = {
                }
            }
        }

    }
}

#204 - Bandit steals from rich, gives to poor (robin hood)
province_event = {
    id = aw_bandits.204
    title = aw_bandits.204.t
    desc = aw_bandits.204.d
    picture = COMET_SIGHTED_eventPicture
    goto = ROOT
    
    hidden = no
    is_triggered_only = yes
    
    trigger = {
        OR = {
            has_province_modifier = aw_bandits_1
            has_province_modifier = aw_bandits_2
            has_province_modifier = aw_bandits_3 
        }

        devastation = 20
    }
    
    option = {
        name = aw_bandits.204.a
        ai_chance = { 
            factor = 100 
        }

        add_devastation = -30

        add_named_unrest = {
            name = aw_bandits_stole_from_rich_give_to_poor
            value = 5
        }

    }
}

#205 - garrison fucks up bandits - not available for bandit kings
province_event = {
    id = aw_bandits.205
    title = aw_bandits.205.t
    desc = aw_bandits.205.d
    picture = COMET_SIGHTED_eventPicture
    goto = ROOT
    
    hidden = no
    is_triggered_only = yes
    
    trigger = {
        OR = {
            has_province_modifier = aw_bandits_1
            has_province_modifier = aw_bandits_2
            has_province_modifier = aw_bandits_3
        }

        has_fort_building_trigger = yes
    }
    
    option = {
        name = aw_bandits.205.a
        ai_chance = { 
            factor = 100 
        }

        if = {
            limit = { 
                has_province_modifier = aw_bandits_3 
            }
            remove_province_modifier = aw_bandits_3
            add_permanent_province_modifier  = {
                name = aw_bandits_2
                duration = -1  
            }
        }
        else_if = {
            limit = { 
                has_province_modifier = aw_bandits_2
            }
            remove_province_modifier = aw_bandits_2
            add_permanent_province_modifier  = {
                name = aw_bandits_1
                duration = -1  
            }
        }
        else_if = {
            limit = { 
                has_province_modifier = aw_bandits_1
            }
            remove_province_modifier = aw_bandits_1
        }
    }
}

#206 - spawn bandit king army
province_event = {
    id = aw_bandits.206
    title = aw_bandits.206.t
    desc = aw_bandits.206.d
    picture = COMET_SIGHTED_eventPicture
    goto = ROOT
    
    hidden = no
    is_triggered_only = yes

    trigger = {
        has_province_modifier = aw_bandits_3 
    }
        
    option = {
        # provoke them!
        name = aw_bandits.206.a
        ai_chance = { factor = 50 }

        add_devastation = 100

        spawn_rebels = {
            type = aw_bandits_rebels
            size = 3
        }
        spawn_rebels = {
            type = aw_bandits_rebels
            size = 3
        }

    }


}