
namespace = flavour_jiazuyu

#Heir Election
country_event = {
	id = flavour_jiazuyu.1
	title = flavour_jiazuyu.1.t
	desc = flavour_jiazuyu.1.d
	picture = COURT_eventPicture
	
	is_triggered_only = yes
	
	trigger = {
		has_reform = liangzhu_reform
	}
	
	#Keep Current Heir
	option = {		
		name = "flavour_jiazuyu.1.a"
		ai_chance = { factor = 5 }
		trigger = { has_heir = yes }
		add_heir_claim = 10
	}
	
	#A strong heir
	option = {		
		name = "flavour_jiazuyu.1.b"
		ai_chance = { factor = 5 }
		define_heir = {
			dynasty = ROOT
			age = 16
			male = yes
			claim = 50
			adm = 0
			dip = 0
			mil = 2
		}
	}
	
	#A compassionate heir
	option = {
		name = "flavour_jiazuyu.1.c"
		ai_chance = { factor = 5 }
		define_heir = {
			dynasty = ROOT
			age = 16
			male = yes
			claim = 50
			adm = 0
			dip = 2
			mil = 0
		}
	}
	
	#A wise heir
	option = {
		name = "flavour_jiazuyu.1.dd"
		ai_chance = { factor = 5 }
		define_heir = {
			dynasty = ROOT
			age = 16
			male = yes
			claim = 50
			adm = 2
			dip = 0
			mil = 0
		}
	}
}
