
# Get a pretender rising if low war-exhaustion and not in a war
country_event = {
	id = 9202
	title = "EVTNAME9202"
	desc = "EVTDESC9202"
	picture = CIVIL_WAR_eventPicture

	trigger = {
		has_reform = steppe_horde
		is_year = 1450
		NOT = { has_dlc = "The Cossacks" }
		is_at_war = no
		num_of_cities = 10
		NOT = { war_exhaustion = 1 }
		has_regency = no
		NOT = { num_of_rebel_controlled_provinces = 1 }
		NOT = { had_recent_war = 15 }
		has_truce = no
		NOT = { has_spawned_rebels = pretender_rebels }
	}
	
	mean_time_to_happen = {
		months = 12
		modifier = {
			factor = 0.5
			mil = 4
		}
		modifier = {
			factor = 10
			ai = yes
		}
	}
	
	option = {
		name = "EVTOPTA9202"
		random_owned_province = {
			pretender_rebels = 1
		}
	}
}

# Event to get a heir killed and pretender rising
country_event = {
	id = 9203
	title = "EVTNAME9203"
	desc = "EVTDESC9203"
	picture = CIVIL_WAR_eventPicture
	
	trigger = {
		OR = {
			has_reform = steppe_horde
			has_reform = tribal_federation
		}
		is_year = 1450
		NOT = { has_dlc = "The Cossacks" }
		num_of_cities = 10
		is_at_war = no
		NOT = { war_exhaustion = 1 }
		has_regency = no
		has_heir = yes
		NOT = { num_of_rebel_controlled_provinces = 1 }
		NOT = { had_recent_war = 15 }
		has_truce = no
		NOT = { has_spawned_rebels = pretender_rebels }		
	}
	
	mean_time_to_happen = {
		months = 60
		modifier = {
			factor = 0.5
			mil = 4
		}
		modifier = {
			factor = 10
			ai = yes
		}
	}
	
	option = {
		name = "EVTOPTA9203"
		kill_heir = yes
	}
	option = {
		name = "EVTOPTB9203"
		random_owned_province = {
			pretender_rebels = 2
		}
	}	
}

# Lower legitimacy if no heir and at peace
country_event = {
	id = 9204
	title = "EVTNAME9204"
	desc = "EVTDESC9204"
	picture = DEBATE_REPUBLICAN_eventPicture
	
	trigger = {
		has_reform = steppe_horde
		is_year = 1450
		NOT = { has_dlc = "The Cossacks" }
		num_of_cities = 10
		is_at_war = no
		NOT = { war_exhaustion = 1 }
		has_regency = no
		has_heir = no
		legitimacy = 10
		NOT = { num_of_rebel_controlled_provinces = 1 }
		NOT = { had_recent_war = 15 }
		has_truce = no
	}
	
	mean_time_to_happen = {
		months = 180
		modifier = {
			factor = 10
			ai = yes
		}
	}
	
	option = {
		name = "EVTOPTA9204"
		add_legitimacy = -15
	}
}