
#Country Name: Please see filename.

graphical_culture = southamericagfx

color = { 145  169  123 }



historical_idea_groups = {
	defensive_ideas
	economic_ideas
	expansion_ideas
	religious_ideas
	innovativeness_ideas
	trade_ideas
	quality_ideas
}


historical_units = {
	native_indian_archer
	native_indian_tribal_warfare
	algonkin_tomahawk_charge
	native_indian_horsemen
	huron_arquebusier
	commanche_swarm
	native_indian_mountain_warfare
	american_western_franchise_warfare
}

monarch_names = {

	#Generic Aelantiri Names
	"Adral #0" = 10
	"Aldaran #0" = 10
	"Aldaron #0" = 10
	"Allaran #0" = 10
	"Allor #0" = 10
	"Alwaron #0" = 10
	"Andrall #0" = 10
	"Arantir #0" = 10
	"Ardor #0" = 10
	"Ardoran #0" = 10
	"Arfall #0" = 10
	"Arlas #0" = 10
	"Artor #0" = 10
	"Danaran #0" = 10
	"Darran #0" = 10
	"Dharastor #0" = 10
	"Dorndor #0" = 10
	"Eboran #0" = 10
	"Elanal #0" = 10
	"Eldas #0" = 10
	"Elran #0" = 10
	"Elrand #0" = 10
	"Elthar #0" = 10
	"Elthor #0" = 10
	"Erlan #0" = 10
	"Ernedal #0" = 10
	"Erran #0" = 10
	"Ewandil #0" = 10
	"Filnar #0" = 10
	"Finnoran #0" = 10
	"Galhor #0" = 10
	"Galinal #0" = 10
	"Galinaldor #0" = 10
	"Galind #0" = 10
	"Galmon #0" = 10
	"Ibban #0" = 10
	"Iwan #0" = 10
	"Iwandal #0" = 10
	"Iwandar #0" = 10
	"Jahainar #0" = 10
	"Jahair #0" = 10
	"Kaladal #0" = 10
	"Kalador #0" = 10
	"Kaladoran #0" = 10
	"Kalindan #0" = 10
	"Kalrod #0" = 10
	"Kalsandel #0" = 10
	"Kalsander #0" = 10
	"Kamnar #0" = 10
	"Kamnaran #0" = 10
	"Kamnaril #0" = 10
	"Karod #0" = 10
	"Manaron #0" = 10
	"Nestrin #0" = 10
	"Pelodan #0" = 10
	"Serron #0" = 10
	"Serrondal #0" = 10
	"Serrondar #0" = 10
	"Talanor #0" = 10
	"Talar #0" = 10
	"Talaran #0" = 10
	"Talnial #0" = 10
	"Tarendal #0" = 10
	"Tarendar #0" = 10
	"Thalror #0" = 10
	"Trandil #0" = 10
	"Tretnor #0" = 10
	"Ultaran #0" = 10
	"Urian #0" = 10
	"Wacaran #0" = 10
	"Wandal #0" = 10
	"Warlor #0" = 10
	"Warmal #0" = 10
	"Warmallan #0" = 10
	"Warmar #0" = 10
	"Warnar #0" = 10

	"Allara #0" = -1
	"Allaranda #0" = -1
	"Allaratha #0" = -1
	"Allarwel #0" = -1
	"Amara #0" = -1
	"Aratha #0" = -1
	"Arathan #0" = -1
	"Dewena #0" = -1
	"Ebora #0" = -1
	"Ella #0" = -1
	"Elthora #0" = -1
	"Erlanda #0" = -1
	"Erlass #0" = -1
	"Fillnara #0" = -1
	"Gallind #0" = -1
	"Immarel #0" = -1
	"Ishera #0" = -1
	"Issarna #0" = -1
	"Issarnda #0" = -1
	"Istrallana #0" = -1
	"Iwarnda #0" = -1
	"Iwarndal #0" = -1
	"Jexassa #0" = -1
	"Kallasa #0" = -1
	"Kamnara #0" = -1
	"Keldora #0" = -1
	"Knarwen #0" = -1
	"Ladrana #0" = -1
	"Lallatha #0" = -1
	"Landel #0" = -1
	"Lanhara #0" = -1
	"Lanlora #0" = -1
	"Lasland #0" = -1
	"Marliath #0" = -1
	"Mitarel #0" = -1
	"Natala #0" = -1
	"Panorl #0" = -1
	"Sarndel #0" = -1
	"Sarrana #0" = -1
	"Sellsa #0" = -1
	"Serronda #0" = -1
	"Shara #0" = -1
	"Shawera #0" = -1
	"Talindela #0" = -1
	"Tanalla #0" = -1
	"Wallana #0" = -1
	"Warla #0" = -1
	"Warnna #0" = -1
	"Wehara #0" = -1
	"Weharran #0" = -1
	"Wesara #0" = -1
	"Zalara #0" = -1
	
}

leader_names = {

	#Geographic Titles
	"sal Arak" "sal Murdkath" "sal Deark" "sal Kairn" "sal Bagcatir" "sal Sidpar" "sal Einn" "sal Jhorg" "sal Raith" "sal Gemrad" "sal Elchos" "sal Domandrod"
	
	
}

ship_names = {
	Domandrod
	Eordand
	Arrag
	Fogar
	Sarmad
	Arakeprun
	Murdkather
	Kairncal
	Bagcatir
	Dearktir
	Gannag
	Darag
	Einnsag
	Raithtall
	Sidpar
	Jhorg
	Pelodir
	Gemrad
}	

army_names = {
	"$PROVINCE$ Aralt" "Gemrad Aralt" "Eordan Aralt"
}

fleet_names = {
	"$PROVINCE$ Cablac" "Gemrad Cablac"
}
